('Y:\\tkinter\\account\\dist\\account.exe',
 False,
 False,
 False,
 'l:\\python\\lib\\site-packages\\PyInstaller\\bootloader\\images\\icon-windowed.ico',
 None,
 False,
 False,
 '<?xml version="1.0" encoding="UTF-8" standalone="yes"?><assembly xmlns="urn:schemas-microsoft-com:asm.v1" manifestVersion="1.0"><assemblyIdentity type="win32" name="account" processorArchitecture="amd64" version="1.0.0.0"/><trustInfo xmlns="urn:schemas-microsoft-com:asm.v3"><security><requestedPrivileges><requestedExecutionLevel level="asInvoker" uiAccess="false"/></requestedPrivileges></security></trustInfo><dependency><dependentAssembly><assemblyIdentity type="win32" name="Microsoft.Windows.Common-Controls" language="*" processorArchitecture="*" version="6.0.0.0" publicKeyToken="6595b64144ccf1df"/><compatibility xmlns="urn:schemas-microsoft-com:compatibility.v1"/></dependentAssembly></dependency><compatibility xmlns="urn:schemas-microsoft-com:compatibility.v1"><application><supportedOS Id="{e2011457-1546-43c5-a5fe-008deee3d3f0}"/><supportedOS Id="{35138b9a-5d96-4fbd-8e2d-a2440225f93a}"/><supportedOS Id="{4a2f28e3-53b9-4441-ba9c-d69d4a4a6e38}"/><supportedOS Id="{1f676c76-80e1-4239-95bb-83d0f6d0da78}"/><supportedOS Id="{8e0f7a12-bfb3-4fe8-b9a5-48fd50a15a9a}"/></application></compatibility><application xmlns="urn:schemas-microsoft-com:asm.v3"><windowsSettings><longPathAware xmlns="http://schemas.microsoft.com/SMI/2016/WindowsSettings">true</longPathAware></windowsSettings></application></assembly>',
 True,
 'account.pkg',
 [('PYZ-00.pyz', 'Y:\\tkinter\\account\\build\\account\\PYZ-00.pyz', 'PYZ'),
  ('struct', 'l:\\python\\lib\\struct.pyo', 'PYMODULE'),
  ('pyimod01_os_path',
   'l:\\python\\lib\\site-packages\\PyInstaller\\loader\\pyimod01_os_path.pyc',
   'PYMODULE'),
  ('pyimod02_archive',
   'l:\\python\\lib\\site-packages\\PyInstaller\\loader\\pyimod02_archive.pyc',
   'PYMODULE'),
  ('pyimod03_importers',
   'l:\\python\\lib\\site-packages\\PyInstaller\\loader\\pyimod03_importers.pyc',
   'PYMODULE'),
  ('pyiboot01_bootstrap',
   'l:\\python\\lib\\site-packages\\PyInstaller\\loader\\pyiboot01_bootstrap.py',
   'PYSOURCE'),
  ('pyi_rth_multiprocessing',
   'L:\\python\\Lib\\site-packages\\PyInstaller\\hooks\\rthooks\\pyi_rth_multiprocessing.py',
   'PYSOURCE'),
  ('pyi_rth__tkinter',
   'L:\\python\\Lib\\site-packages\\PyInstaller\\hooks\\rthooks\\pyi_rth__tkinter.py',
   'PYSOURCE'),
  ('account', 'Y:\\tkinter\\account\\account.py', 'PYSOURCE'),
  ('api-ms-win-crt-heap-l1-1-0.dll',
   'L:\\java\\jdk\\jre\\bin\\api-ms-win-crt-heap-l1-1-0.dll',
   'BINARY'),
  ('api-ms-win-crt-locale-l1-1-0.dll',
   'L:\\java\\jdk\\jre\\bin\\api-ms-win-crt-locale-l1-1-0.dll',
   'BINARY'),
  ('python38.dll', 'l:\\python\\python38.dll', 'BINARY'),
  ('api-ms-win-crt-stdio-l1-1-0.dll',
   'L:\\java\\jdk\\jre\\bin\\api-ms-win-crt-stdio-l1-1-0.dll',
   'BINARY'),
  ('api-ms-win-crt-runtime-l1-1-0.dll',
   'L:\\java\\jdk\\jre\\bin\\api-ms-win-crt-runtime-l1-1-0.dll',
   'BINARY'),
  ('api-ms-win-crt-math-l1-1-0.dll',
   'L:\\java\\jdk\\jre\\bin\\api-ms-win-crt-math-l1-1-0.dll',
   'BINARY'),
  ('VCRUNTIME140.dll', 'l:\\python\\VCRUNTIME140.dll', 'BINARY'),
  ('ucrtbase.dll', 'L:\\java\\jdk\\jre\\bin\\ucrtbase.dll', 'BINARY'),
  ('api-ms-win-crt-environment-l1-1-0.dll',
   'L:\\java\\jdk\\jre\\bin\\api-ms-win-crt-environment-l1-1-0.dll',
   'BINARY'),
  ('api-ms-win-crt-convert-l1-1-0.dll',
   'L:\\java\\jdk\\jre\\bin\\api-ms-win-crt-convert-l1-1-0.dll',
   'BINARY'),
  ('api-ms-win-crt-filesystem-l1-1-0.dll',
   'L:\\java\\jdk\\jre\\bin\\api-ms-win-crt-filesystem-l1-1-0.dll',
   'BINARY'),
  ('api-ms-win-crt-conio-l1-1-0.dll',
   'L:\\java\\jdk\\jre\\bin\\api-ms-win-crt-conio-l1-1-0.dll',
   'BINARY'),
  ('api-ms-win-crt-process-l1-1-0.dll',
   'L:\\java\\jdk\\jre\\bin\\api-ms-win-crt-process-l1-1-0.dll',
   'BINARY'),
  ('api-ms-win-crt-time-l1-1-0.dll',
   'L:\\java\\jdk\\jre\\bin\\api-ms-win-crt-time-l1-1-0.dll',
   'BINARY'),
  ('api-ms-win-crt-string-l1-1-0.dll',
   'L:\\java\\jdk\\jre\\bin\\api-ms-win-crt-string-l1-1-0.dll',
   'BINARY'),
  ('api-ms-win-core-heap-l1-1-0.dll',
   'L:\\java\\jdk\\jre\\bin\\api-ms-win-core-heap-l1-1-0.dll',
   'BINARY'),
  ('api-ms-win-core-datetime-l1-1-0.dll',
   'L:\\java\\jdk\\jre\\bin\\api-ms-win-core-datetime-l1-1-0.dll',
   'BINARY'),
  ('api-ms-win-core-console-l1-1-0.dll',
   'L:\\java\\jdk\\jre\\bin\\api-ms-win-core-console-l1-1-0.dll',
   'BINARY'),
  ('api-ms-win-core-string-l1-1-0.dll',
   'L:\\java\\jdk\\jre\\bin\\api-ms-win-core-string-l1-1-0.dll',
   'BINARY'),
  ('api-ms-win-core-util-l1-1-0.dll',
   'L:\\java\\jdk\\jre\\bin\\api-ms-win-core-util-l1-1-0.dll',
   'BINARY'),
  ('api-ms-win-core-rtlsupport-l1-1-0.dll',
   'L:\\java\\jdk\\jre\\bin\\api-ms-win-core-rtlsupport-l1-1-0.dll',
   'BINARY'),
  ('api-ms-win-core-file-l2-1-0.dll',
   'L:\\java\\jdk\\jre\\bin\\api-ms-win-core-file-l2-1-0.dll',
   'BINARY'),
  ('api-ms-win-core-file-l1-1-0.dll',
   'L:\\java\\jdk\\jre\\bin\\api-ms-win-core-file-l1-1-0.dll',
   'BINARY'),
  ('api-ms-win-core-namedpipe-l1-1-0.dll',
   'L:\\java\\jdk\\jre\\bin\\api-ms-win-core-namedpipe-l1-1-0.dll',
   'BINARY'),
  ('api-ms-win-core-synch-l1-1-0.dll',
   'L:\\java\\jdk\\jre\\bin\\api-ms-win-core-synch-l1-1-0.dll',
   'BINARY'),
  ('api-ms-win-core-processenvironment-l1-1-0.dll',
   'L:\\java\\jdk\\jre\\bin\\api-ms-win-core-processenvironment-l1-1-0.dll',
   'BINARY'),
  ('api-ms-win-core-memory-l1-1-0.dll',
   'L:\\java\\jdk\\jre\\bin\\api-ms-win-core-memory-l1-1-0.dll',
   'BINARY'),
  ('api-ms-win-core-handle-l1-1-0.dll',
   'L:\\java\\jdk\\jre\\bin\\api-ms-win-core-handle-l1-1-0.dll',
   'BINARY'),
  ('api-ms-win-core-synch-l1-2-0.dll',
   'L:\\java\\jdk\\jre\\bin\\api-ms-win-core-synch-l1-2-0.dll',
   'BINARY'),
  ('api-ms-win-core-errorhandling-l1-1-0.dll',
   'L:\\java\\jdk\\jre\\bin\\api-ms-win-core-errorhandling-l1-1-0.dll',
   'BINARY'),
  ('api-ms-win-core-localization-l1-2-0.dll',
   'L:\\java\\jdk\\jre\\bin\\api-ms-win-core-localization-l1-2-0.dll',
   'BINARY'),
  ('api-ms-win-core-sysinfo-l1-1-0.dll',
   'L:\\java\\jdk\\jre\\bin\\api-ms-win-core-sysinfo-l1-1-0.dll',
   'BINARY'),
  ('api-ms-win-core-debug-l1-1-0.dll',
   'L:\\java\\jdk\\jre\\bin\\api-ms-win-core-debug-l1-1-0.dll',
   'BINARY'),
  ('api-ms-win-core-file-l1-2-0.dll',
   'L:\\java\\jdk\\jre\\bin\\api-ms-win-core-file-l1-2-0.dll',
   'BINARY'),
  ('api-ms-win-core-libraryloader-l1-1-0.dll',
   'L:\\java\\jdk\\jre\\bin\\api-ms-win-core-libraryloader-l1-1-0.dll',
   'BINARY'),
  ('api-ms-win-core-processthreads-l1-1-1.dll',
   'L:\\java\\jdk\\jre\\bin\\api-ms-win-core-processthreads-l1-1-1.dll',
   'BINARY'),
  ('api-ms-win-core-profile-l1-1-0.dll',
   'L:\\java\\jdk\\jre\\bin\\api-ms-win-core-profile-l1-1-0.dll',
   'BINARY'),
  ('api-ms-win-core-interlocked-l1-1-0.dll',
   'L:\\java\\jdk\\jre\\bin\\api-ms-win-core-interlocked-l1-1-0.dll',
   'BINARY'),
  ('api-ms-win-core-timezone-l1-1-0.dll',
   'L:\\java\\jdk\\jre\\bin\\api-ms-win-core-timezone-l1-1-0.dll',
   'BINARY'),
  ('api-ms-win-core-processthreads-l1-1-0.dll',
   'L:\\java\\jdk\\jre\\bin\\api-ms-win-core-processthreads-l1-1-0.dll',
   'BINARY'),
  ('select', 'l:\\python\\DLLs\\select.pyd', 'EXTENSION'),
  ('unicodedata', 'l:\\python\\DLLs\\unicodedata.pyd', 'EXTENSION'),
  ('_socket', 'l:\\python\\DLLs\\_socket.pyd', 'EXTENSION'),
  ('_overlapped', 'l:\\python\\DLLs\\_overlapped.pyd', 'EXTENSION'),
  ('_ssl', 'l:\\python\\DLLs\\_ssl.pyd', 'EXTENSION'),
  ('_asyncio', 'l:\\python\\DLLs\\_asyncio.pyd', 'EXTENSION'),
  ('_queue', 'l:\\python\\DLLs\\_queue.pyd', 'EXTENSION'),
  ('_ctypes', 'l:\\python\\DLLs\\_ctypes.pyd', 'EXTENSION'),
  ('_multiprocessing', 'l:\\python\\DLLs\\_multiprocessing.pyd', 'EXTENSION'),
  ('pyexpat', 'l:\\python\\DLLs\\pyexpat.pyd', 'EXTENSION'),
  ('_decimal', 'l:\\python\\DLLs\\_decimal.pyd', 'EXTENSION'),
  ('_hashlib', 'l:\\python\\DLLs\\_hashlib.pyd', 'EXTENSION'),
  ('_lzma', 'l:\\python\\DLLs\\_lzma.pyd', 'EXTENSION'),
  ('_bz2', 'l:\\python\\DLLs\\_bz2.pyd', 'EXTENSION'),
  ('_tkinter', 'l:\\python\\DLLs\\_tkinter.pyd', 'EXTENSION'),
  ('_sqlite3', 'l:\\python\\DLLs\\_sqlite3.pyd', 'EXTENSION'),
  ('libcrypto-1_1.dll', 'l:\\python\\DLLs\\libcrypto-1_1.dll', 'BINARY'),
  ('libssl-1_1.dll', 'l:\\python\\DLLs\\libssl-1_1.dll', 'BINARY'),
  ('libffi-7.dll', 'l:\\python\\DLLs\\libffi-7.dll', 'BINARY'),
  ('api-ms-win-crt-utility-l1-1-0.dll',
   'L:\\java\\jdk\\jre\\bin\\api-ms-win-crt-utility-l1-1-0.dll',
   'BINARY'),
  ('tcl86t.dll', 'l:\\python\\DLLs\\tcl86t.dll', 'BINARY'),
  ('tk86t.dll', 'l:\\python\\DLLs\\tk86t.dll', 'BINARY'),
  ('sqlite3.dll', 'l:\\python\\DLLs\\sqlite3.dll', 'BINARY'),
  ('base_library.zip',
   'Y:\\tkinter\\account\\build\\account\\base_library.zip',
   'DATA'),
  ('tcl\\tzdata\\Indian\\Antananarivo',
   'l:\\python\\tcl\\tcl8.6\\tzdata\\Indian\\Antananarivo',
   'DATA'),
  ('tcl\\tzdata\\Pacific\\Funafuti',
   'l:\\python\\tcl\\tcl8.6\\tzdata\\Pacific\\Funafuti',
   'DATA'),
  ('tcl\\msgs\\tr.msg', 'l:\\python\\tcl\\tcl8.6\\msgs\\tr.msg', 'DATA'),
  ('tcl\\tzdata\\Asia\\Yangon',
   'l:\\python\\tcl\\tcl8.6\\tzdata\\Asia\\Yangon',
   'DATA'),
  ('tcl\\tzdata\\US\\Michigan',
   'l:\\python\\tcl\\tcl8.6\\tzdata\\US\\Michigan',
   'DATA'),
  ('tcl\\tzdata\\America\\Martinique',
   'l:\\python\\tcl\\tcl8.6\\tzdata\\America\\Martinique',
   'DATA'),
  ('tcl\\encoding\\cp1257.enc',
   'l:\\python\\tcl\\tcl8.6\\encoding\\cp1257.enc',
   'DATA'),
  ('tcl\\encoding\\iso2022-jp.enc',
   'l:\\python\\tcl\\tcl8.6\\encoding\\iso2022-jp.enc',
   'DATA'),
  ('tcl\\tzdata\\America\\El_Salvador',
   'l:\\python\\tcl\\tcl8.6\\tzdata\\America\\El_Salvador',
   'DATA'),
  ('tcl\\encoding\\iso8859-16.enc',
   'l:\\python\\tcl\\tcl8.6\\encoding\\iso8859-16.enc',
   'DATA'),
  ('tcl\\msgs\\mk.msg', 'l:\\python\\tcl\\tcl8.6\\msgs\\mk.msg', 'DATA'),
  ('tcl\\tzdata\\Antarctica\\Troll',
   'l:\\python\\tcl\\tcl8.6\\tzdata\\Antarctica\\Troll',
   'DATA'),
  ('tcl\\msgs\\sr.msg', 'l:\\python\\tcl\\tcl8.6\\msgs\\sr.msg', 'DATA'),
  ('tcl\\encoding\\macThai.enc',
   'l:\\python\\tcl\\tcl8.6\\encoding\\macThai.enc',
   'DATA'),
  ('tcl\\tzdata\\SystemV\\YST9YDT',
   'l:\\python\\tcl\\tcl8.6\\tzdata\\SystemV\\YST9YDT',
   'DATA'),
  ('tcl\\tzdata\\Egypt', 'l:\\python\\tcl\\tcl8.6\\tzdata\\Egypt', 'DATA'),
  ('tcl\\tzdata\\Europe\\Bucharest',
   'l:\\python\\tcl\\tcl8.6\\tzdata\\Europe\\Bucharest',
   'DATA'),
  ('tcl\\tzdata\\Antarctica\\Rothera',
   'l:\\python\\tcl\\tcl8.6\\tzdata\\Antarctica\\Rothera',
   'DATA'),
  ('tcl\\tzdata\\Europe\\Podgorica',
   'l:\\python\\tcl\\tcl8.6\\tzdata\\Europe\\Podgorica',
   'DATA'),
  ('tcl\\tzdata\\EET', 'l:\\python\\tcl\\tcl8.6\\tzdata\\EET', 'DATA'),
  ('tcl\\tzdata\\America\\Detroit',
   'l:\\python\\tcl\\tcl8.6\\tzdata\\America\\Detroit',
   'DATA'),
  ('tcl\\tzdata\\US\\Pacific-New',
   'l:\\python\\tcl\\tcl8.6\\tzdata\\US\\Pacific-New',
   'DATA'),
  ('tcl\\tzdata\\Antarctica\\Syowa',
   'l:\\python\\tcl\\tcl8.6\\tzdata\\Antarctica\\Syowa',
   'DATA'),
  ('tcl\\encoding\\jis0208.enc',
   'l:\\python\\tcl\\tcl8.6\\encoding\\jis0208.enc',
   'DATA'),
  ('tk\\msgs\\en_gb.msg', 'l:\\python\\tcl\\tk8.6\\msgs\\en_gb.msg', 'DATA'),
  ('tcl\\tzdata\\Africa\\Asmara',
   'l:\\python\\tcl\\tcl8.6\\tzdata\\Africa\\Asmara',
   'DATA'),
  ('tcl\\tzdata\\America\\Glace_Bay',
   'l:\\python\\tcl\\tcl8.6\\tzdata\\America\\Glace_Bay',
   'DATA'),
  ('tcl\\tzdata\\America\\Guadeloupe',
   'l:\\python\\tcl\\tcl8.6\\tzdata\\America\\Guadeloupe',
   'DATA'),
  ('tcl\\tzdata\\America\\Dawson',
   'l:\\python\\tcl\\tcl8.6\\tzdata\\America\\Dawson',
   'DATA'),
  ('tcl\\tzdata\\America\\Cambridge_Bay',
   'l:\\python\\tcl\\tcl8.6\\tzdata\\America\\Cambridge_Bay',
   'DATA'),
  ('tk\\icons.tcl', 'l:\\python\\tcl\\tk8.6\\icons.tcl', 'DATA'),
  ('tcl\\tzdata\\Australia\\Hobart',
   'l:\\python\\tcl\\tcl8.6\\tzdata\\Australia\\Hobart',
   'DATA'),
  ('tcl\\tzdata\\America\\New_York',
   'l:\\python\\tcl\\tcl8.6\\tzdata\\America\\New_York',
   'DATA'),
  ('tcl\\tzdata\\America\\Tegucigalpa',
   'l:\\python\\tcl\\tcl8.6\\tzdata\\America\\Tegucigalpa',
   'DATA'),
  ('tcl\\tzdata\\Australia\\Eucla',
   'l:\\python\\tcl\\tcl8.6\\tzdata\\Australia\\Eucla',
   'DATA'),
  ('tcl\\tzdata\\Asia\\Almaty',
   'l:\\python\\tcl\\tcl8.6\\tzdata\\Asia\\Almaty',
   'DATA'),
  ('tcl\\tzdata\\ROK', 'l:\\python\\tcl\\tcl8.6\\tzdata\\ROK', 'DATA'),
  ('tk\\images\\pwrdLogo100.gif',
   'l:\\python\\tcl\\tk8.6\\images\\pwrdLogo100.gif',
   'DATA'),
  ('tcl\\tzdata\\Brazil\\East',
   'l:\\python\\tcl\\tcl8.6\\tzdata\\Brazil\\East',
   'DATA'),
  ('tcl\\tzdata\\Asia\\Dhaka',
   'l:\\python\\tcl\\tcl8.6\\tzdata\\Asia\\Dhaka',
   'DATA'),
  ('tcl\\encoding\\cp932.enc',
   'l:\\python\\tcl\\tcl8.6\\encoding\\cp932.enc',
   'DATA'),
  ('tcl\\encoding\\gb2312-raw.enc',
   'l:\\python\\tcl\\tcl8.6\\encoding\\gb2312-raw.enc',
   'DATA'),
  ('tcl\\tzdata\\Etc\\GMT-12',
   'l:\\python\\tcl\\tcl8.6\\tzdata\\Etc\\GMT-12',
   'DATA'),
  ('tcl\\tzdata\\America\\Knox_IN',
   'l:\\python\\tcl\\tcl8.6\\tzdata\\America\\Knox_IN',
   'DATA'),
  ('tcl\\tzdata\\Africa\\Dar_es_Salaam',
   'l:\\python\\tcl\\tcl8.6\\tzdata\\Africa\\Dar_es_Salaam',
   'DATA'),
  ('tcl\\msgs\\nb.msg', 'l:\\python\\tcl\\tcl8.6\\msgs\\nb.msg', 'DATA'),
  ('tcl\\tzdata\\US\\Indiana-Starke',
   'l:\\python\\tcl\\tcl8.6\\tzdata\\US\\Indiana-Starke',
   'DATA'),
  ('tcl\\tzdata\\Europe\\Amsterdam',
   'l:\\python\\tcl\\tcl8.6\\tzdata\\Europe\\Amsterdam',
   'DATA'),
  ('tcl\\tzdata\\Asia\\Atyrau',
   'l:\\python\\tcl\\tcl8.6\\tzdata\\Asia\\Atyrau',
   'DATA'),
  ('tk\\images\\logo.eps', 'l:\\python\\tcl\\tk8.6\\images\\logo.eps', 'DATA'),
  ('tcl\\tzdata\\America\\Puerto_Rico',
   'l:\\python\\tcl\\tcl8.6\\tzdata\\America\\Puerto_Rico',
   'DATA'),
  ('tcl\\tzdata\\Etc\\GMT+5',
   'l:\\python\\tcl\\tcl8.6\\tzdata\\Etc\\GMT+5',
   'DATA'),
  ('tcl\\tzdata\\Asia\\Karachi',
   'l:\\python\\tcl\\tcl8.6\\tzdata\\Asia\\Karachi',
   'DATA'),
  ('tk\\ttk\\aquaTheme.tcl',
   'l:\\python\\tcl\\tk8.6\\ttk\\aquaTheme.tcl',
   'DATA'),
  ('tcl\\tzdata\\Asia\\Amman',
   'l:\\python\\tcl\\tcl8.6\\tzdata\\Asia\\Amman',
   'DATA'),
  ('tcl\\tzdata\\US\\Central',
   'l:\\python\\tcl\\tcl8.6\\tzdata\\US\\Central',
   'DATA'),
  ('tcl\\msgs\\af.msg', 'l:\\python\\tcl\\tcl8.6\\msgs\\af.msg', 'DATA'),
  ('tcl\\tzdata\\Asia\\Urumqi',
   'l:\\python\\tcl\\tcl8.6\\tzdata\\Asia\\Urumqi',
   'DATA'),
  ('tk\\msgs\\sv.msg', 'l:\\python\\tcl\\tk8.6\\msgs\\sv.msg', 'DATA'),
  ('tcl\\msgs\\kok.msg', 'l:\\python\\tcl\\tcl8.6\\msgs\\kok.msg', 'DATA'),
  ('tcl\\tzdata\\Antarctica\\Macquarie',
   'l:\\python\\tcl\\tcl8.6\\tzdata\\Antarctica\\Macquarie',
   'DATA'),
  ('tcl\\tzdata\\America\\Argentina\\Rio_Gallegos',
   'l:\\python\\tcl\\tcl8.6\\tzdata\\America\\Argentina\\Rio_Gallegos',
   'DATA'),
  ('tcl\\tzdata\\US\\East-Indiana',
   'l:\\python\\tcl\\tcl8.6\\tzdata\\US\\East-Indiana',
   'DATA'),
  ('tcl\\tzdata\\America\\Fortaleza',
   'l:\\python\\tcl\\tcl8.6\\tzdata\\America\\Fortaleza',
   'DATA'),
  ('tcl\\tzdata\\Pacific\\Yap',
   'l:\\python\\tcl\\tcl8.6\\tzdata\\Pacific\\Yap',
   'DATA'),
  ('tcl\\tzdata\\Asia\\Samarkand',
   'l:\\python\\tcl\\tcl8.6\\tzdata\\Asia\\Samarkand',
   'DATA'),
  ('tcl\\tzdata\\America\\Indiana\\Vincennes',
   'l:\\python\\tcl\\tcl8.6\\tzdata\\America\\Indiana\\Vincennes',
   'DATA'),
  ('tcl\\msgs\\da.msg', 'l:\\python\\tcl\\tcl8.6\\msgs\\da.msg', 'DATA'),
  ('tcl\\msgs\\es_uy.msg', 'l:\\python\\tcl\\tcl8.6\\msgs\\es_uy.msg', 'DATA'),
  ('tcl\\tzdata\\Canada\\Pacific',
   'l:\\python\\tcl\\tcl8.6\\tzdata\\Canada\\Pacific',
   'DATA'),
  ('tcl\\tzdata\\Asia\\Bahrain',
   'l:\\python\\tcl\\tcl8.6\\tzdata\\Asia\\Bahrain',
   'DATA'),
  ('tcl\\tzdata\\America\\Indiana\\Vevay',
   'l:\\python\\tcl\\tcl8.6\\tzdata\\America\\Indiana\\Vevay',
   'DATA'),
  ('tcl\\tzdata\\Australia\\Lord_Howe',
   'l:\\python\\tcl\\tcl8.6\\tzdata\\Australia\\Lord_Howe',
   'DATA'),
  ('tcl\\tzdata\\America\\Catamarca',
   'l:\\python\\tcl\\tcl8.6\\tzdata\\America\\Catamarca',
   'DATA'),
  ('tcl\\tm.tcl', 'l:\\python\\tcl\\tcl8.6\\tm.tcl', 'DATA'),
  ('tcl\\tzdata\\Asia\\Baku',
   'l:\\python\\tcl\\tcl8.6\\tzdata\\Asia\\Baku',
   'DATA'),
  ('tcl\\safe.tcl', 'l:\\python\\tcl\\tcl8.6\\safe.tcl', 'DATA'),
  ('tcl\\tzdata\\America\\Cancun',
   'l:\\python\\tcl\\tcl8.6\\tzdata\\America\\Cancun',
   'DATA'),
  ('tcl\\tzdata\\Asia\\Yekaterinburg',
   'l:\\python\\tcl\\tcl8.6\\tzdata\\Asia\\Yekaterinburg',
   'DATA'),
  ('tcl\\tzdata\\America\\Lower_Princes',
   'l:\\python\\tcl\\tcl8.6\\tzdata\\America\\Lower_Princes',
   'DATA'),
  ('tcl\\msgs\\en_be.msg', 'l:\\python\\tcl\\tcl8.6\\msgs\\en_be.msg', 'DATA'),
  ('tcl\\tzdata\\Etc\\GMT+7',
   'l:\\python\\tcl\\tcl8.6\\tzdata\\Etc\\GMT+7',
   'DATA'),
  ('tcl\\tzdata\\Asia\\Omsk',
   'l:\\python\\tcl\\tcl8.6\\tzdata\\Asia\\Omsk',
   'DATA'),
  ('tk\\ttk\\vistaTheme.tcl',
   'l:\\python\\tcl\\tk8.6\\ttk\\vistaTheme.tcl',
   'DATA'),
  ('tcl\\tzdata\\Atlantic\\Faroe',
   'l:\\python\\tcl\\tcl8.6\\tzdata\\Atlantic\\Faroe',
   'DATA'),
  ('tk\\msgs\\hu.msg', 'l:\\python\\tcl\\tk8.6\\msgs\\hu.msg', 'DATA'),
  ('tcl\\encoding\\iso8859-10.enc',
   'l:\\python\\tcl\\tcl8.6\\encoding\\iso8859-10.enc',
   'DATA'),
  ('tk\\msgs\\cs.msg', 'l:\\python\\tcl\\tk8.6\\msgs\\cs.msg', 'DATA'),
  ('tcl\\tzdata\\America\\Los_Angeles',
   'l:\\python\\tcl\\tcl8.6\\tzdata\\America\\Los_Angeles',
   'DATA'),
  ('tk\\spinbox.tcl', 'l:\\python\\tcl\\tk8.6\\spinbox.tcl', 'DATA'),
  ('tcl\\encoding\\koi8-u.enc',
   'l:\\python\\tcl\\tcl8.6\\encoding\\koi8-u.enc',
   'DATA'),
  ('tcl\\tzdata\\America\\Indianapolis',
   'l:\\python\\tcl\\tcl8.6\\tzdata\\America\\Indianapolis',
   'DATA'),
  ('tcl\\encoding\\cp855.enc',
   'l:\\python\\tcl\\tcl8.6\\encoding\\cp855.enc',
   'DATA'),
  ('tcl\\msgs\\hr.msg', 'l:\\python\\tcl\\tcl8.6\\msgs\\hr.msg', 'DATA'),
  ('tcl\\tzdata\\GMT0', 'l:\\python\\tcl\\tcl8.6\\tzdata\\GMT0', 'DATA'),
  ('tcl\\tzdata\\Asia\\Jakarta',
   'l:\\python\\tcl\\tcl8.6\\tzdata\\Asia\\Jakarta',
   'DATA'),
  ('tcl\\msgs\\mr.msg', 'l:\\python\\tcl\\tcl8.6\\msgs\\mr.msg', 'DATA'),
  ('tcl8\\8.5\\msgcat-1.6.1.tm',
   'l:\\python\\tcl\\tcl8.6\\..\\tcl8\\8.5\\msgcat-1.6.1.tm',
   'DATA'),
  ('tcl\\tzdata\\Atlantic\\Reykjavik',
   'l:\\python\\tcl\\tcl8.6\\tzdata\\Atlantic\\Reykjavik',
   'DATA'),
  ('tcl\\msgs\\en_za.msg', 'l:\\python\\tcl\\tcl8.6\\msgs\\en_za.msg', 'DATA'),
  ('tcl\\msgs\\lt.msg', 'l:\\python\\tcl\\tcl8.6\\msgs\\lt.msg', 'DATA'),
  ('tcl\\tzdata\\Pacific\\Kwajalein',
   'l:\\python\\tcl\\tcl8.6\\tzdata\\Pacific\\Kwajalein',
   'DATA'),
  ('tcl\\encoding\\tis-620.enc',
   'l:\\python\\tcl\\tcl8.6\\encoding\\tis-620.enc',
   'DATA'),
  ('tcl\\tzdata\\Asia\\Chungking',
   'l:\\python\\tcl\\tcl8.6\\tzdata\\Asia\\Chungking',
   'DATA'),
  ('tcl\\tzdata\\Asia\\Seoul',
   'l:\\python\\tcl\\tcl8.6\\tzdata\\Asia\\Seoul',
   'DATA'),
  ('tcl\\tzdata\\Europe\\Ulyanovsk',
   'l:\\python\\tcl\\tcl8.6\\tzdata\\Europe\\Ulyanovsk',
   'DATA'),
  ('tcl\\tzdata\\America\\Kralendijk',
   'l:\\python\\tcl\\tcl8.6\\tzdata\\America\\Kralendijk',
   'DATA'),
  ('tcl8\\8.4\\platform-1.0.14.tm',
   'l:\\python\\tcl\\tcl8.6\\..\\tcl8\\8.4\\platform-1.0.14.tm',
   'DATA'),
  ('tcl\\tzdata\\Europe\\Warsaw',
   'l:\\python\\tcl\\tcl8.6\\tzdata\\Europe\\Warsaw',
   'DATA'),
  ('tcl\\tzdata\\America\\Kentucky\\Monticello',
   'l:\\python\\tcl\\tcl8.6\\tzdata\\America\\Kentucky\\Monticello',
   'DATA'),
  ('tcl\\tzdata\\Pacific\\Norfolk',
   'l:\\python\\tcl\\tcl8.6\\tzdata\\Pacific\\Norfolk',
   'DATA'),
  ('tcl\\tzdata\\America\\Halifax',
   'l:\\python\\tcl\\tcl8.6\\tzdata\\America\\Halifax',
   'DATA'),
  ('tcl\\tzdata\\Asia\\Vientiane',
   'l:\\python\\tcl\\tcl8.6\\tzdata\\Asia\\Vientiane',
   'DATA'),
  ('tk\\ttk\\entry.tcl', 'l:\\python\\tcl\\tk8.6\\ttk\\entry.tcl', 'DATA'),
  ('tk\\console.tcl', 'l:\\python\\tcl\\tk8.6\\console.tcl', 'DATA'),
  ('tcl\\tzdata\\Africa\\Porto-Novo',
   'l:\\python\\tcl\\tcl8.6\\tzdata\\Africa\\Porto-Novo',
   'DATA'),
  ('tcl\\tzdata\\America\\Cayenne',
   'l:\\python\\tcl\\tcl8.6\\tzdata\\America\\Cayenne',
   'DATA'),
  ('tcl\\msgs\\kl.msg', 'l:\\python\\tcl\\tcl8.6\\msgs\\kl.msg', 'DATA'),
  ('tcl\\tzdata\\Chile\\Continental',
   'l:\\python\\tcl\\tcl8.6\\tzdata\\Chile\\Continental',
   'DATA'),
  ('tk\\ttk\\spinbox.tcl', 'l:\\python\\tcl\\tk8.6\\ttk\\spinbox.tcl', 'DATA'),
  ('tcl\\tzdata\\Pacific\\Marquesas',
   'l:\\python\\tcl\\tcl8.6\\tzdata\\Pacific\\Marquesas',
   'DATA'),
  ('tcl\\tzdata\\Etc\\GMT+9',
   'l:\\python\\tcl\\tcl8.6\\tzdata\\Etc\\GMT+9',
   'DATA'),
  ('tcl\\encoding\\cp1252.enc',
   'l:\\python\\tcl\\tcl8.6\\encoding\\cp1252.enc',
   'DATA'),
  ('tcl\\encoding\\macTurkish.enc',
   'l:\\python\\tcl\\tcl8.6\\encoding\\macTurkish.enc',
   'DATA'),
  ('tcl\\tzdata\\Asia\\Srednekolymsk',
   'l:\\python\\tcl\\tcl8.6\\tzdata\\Asia\\Srednekolymsk',
   'DATA'),
  ('tcl\\tzdata\\Asia\\Jerusalem',
   'l:\\python\\tcl\\tcl8.6\\tzdata\\Asia\\Jerusalem',
   'DATA'),
  ('tcl\\tzdata\\Asia\\Manila',
   'l:\\python\\tcl\\tcl8.6\\tzdata\\Asia\\Manila',
   'DATA'),
  ('tcl\\msgs\\es.msg', 'l:\\python\\tcl\\tcl8.6\\msgs\\es.msg', 'DATA'),
  ('tcl\\tzdata\\Africa\\Accra',
   'l:\\python\\tcl\\tcl8.6\\tzdata\\Africa\\Accra',
   'DATA'),
  ('tcl\\tzdata\\America\\Argentina\\Ushuaia',
   'l:\\python\\tcl\\tcl8.6\\tzdata\\America\\Argentina\\Ushuaia',
   'DATA'),
  ('tk\\obsolete.tcl', 'l:\\python\\tcl\\tk8.6\\obsolete.tcl', 'DATA'),
  ('tcl\\tzdata\\Atlantic\\Bermuda',
   'l:\\python\\tcl\\tcl8.6\\tzdata\\Atlantic\\Bermuda',
   'DATA'),
  ('tcl\\tzdata\\Europe\\Brussels',
   'l:\\python\\tcl\\tcl8.6\\tzdata\\Europe\\Brussels',
   'DATA'),
  ('tcl\\tzdata\\America\\Coral_Harbour',
   'l:\\python\\tcl\\tcl8.6\\tzdata\\America\\Coral_Harbour',
   'DATA'),
  ('tcl\\tzdata\\America\\Indiana\\Petersburg',
   'l:\\python\\tcl\\tcl8.6\\tzdata\\America\\Indiana\\Petersburg',
   'DATA'),
  ('tcl\\encoding\\ebcdic.enc',
   'l:\\python\\tcl\\tcl8.6\\encoding\\ebcdic.enc',
   'DATA'),
  ('tcl\\encoding\\iso8859-7.enc',
   'l:\\python\\tcl\\tcl8.6\\encoding\\iso8859-7.enc',
   'DATA'),
  ('tk\\msgs\\de.msg', 'l:\\python\\tcl\\tk8.6\\msgs\\de.msg', 'DATA'),
  ('tcl\\tzdata\\Asia\\Colombo',
   'l:\\python\\tcl\\tcl8.6\\tzdata\\Asia\\Colombo',
   'DATA'),
  ('tcl\\msgs\\de.msg', 'l:\\python\\tcl\\tcl8.6\\msgs\\de.msg', 'DATA'),
  ('tcl\\msgs\\ta.msg', 'l:\\python\\tcl\\tcl8.6\\msgs\\ta.msg', 'DATA'),
  ('tcl\\tzdata\\America\\Juneau',
   'l:\\python\\tcl\\tcl8.6\\tzdata\\America\\Juneau',
   'DATA'),
  ('tcl\\tzdata\\WET', 'l:\\python\\tcl\\tcl8.6\\tzdata\\WET', 'DATA'),
  ('tcl\\tzdata\\America\\Eirunepe',
   'l:\\python\\tcl\\tcl8.6\\tzdata\\America\\Eirunepe',
   'DATA'),
  ('tcl\\tzdata\\Navajo', 'l:\\python\\tcl\\tcl8.6\\tzdata\\Navajo', 'DATA'),
  ('tcl\\tzdata\\Europe\\Uzhgorod',
   'l:\\python\\tcl\\tcl8.6\\tzdata\\Europe\\Uzhgorod',
   'DATA'),
  ('tcl\\tzdata\\SystemV\\MST7MDT',
   'l:\\python\\tcl\\tcl8.6\\tzdata\\SystemV\\MST7MDT',
   'DATA'),
  ('tcl\\tzdata\\America\\Anchorage',
   'l:\\python\\tcl\\tcl8.6\\tzdata\\America\\Anchorage',
   'DATA'),
  ('tcl\\msgs\\is.msg', 'l:\\python\\tcl\\tcl8.6\\msgs\\is.msg', 'DATA'),
  ('tcl\\msgs\\zh.msg', 'l:\\python\\tcl\\tcl8.6\\msgs\\zh.msg', 'DATA'),
  ('tk\\images\\tai-ku.gif',
   'l:\\python\\tcl\\tk8.6\\images\\tai-ku.gif',
   'DATA'),
  ('tcl\\tzdata\\Asia\\Hovd',
   'l:\\python\\tcl\\tcl8.6\\tzdata\\Asia\\Hovd',
   'DATA'),
  ('tcl\\msgs\\ro.msg', 'l:\\python\\tcl\\tcl8.6\\msgs\\ro.msg', 'DATA'),
  ('tcl\\tzdata\\Africa\\Kampala',
   'l:\\python\\tcl\\tcl8.6\\tzdata\\Africa\\Kampala',
   'DATA'),
  ('tcl\\encoding\\cp863.enc',
   'l:\\python\\tcl\\tcl8.6\\encoding\\cp863.enc',
   'DATA'),
  ('tcl\\tzdata\\Asia\\Tel_Aviv',
   'l:\\python\\tcl\\tcl8.6\\tzdata\\Asia\\Tel_Aviv',
   'DATA'),
  ('tcl\\tzdata\\Pacific\\Pohnpei',
   'l:\\python\\tcl\\tcl8.6\\tzdata\\Pacific\\Pohnpei',
   'DATA'),
  ('tcl\\tzdata\\Asia\\Tomsk',
   'l:\\python\\tcl\\tcl8.6\\tzdata\\Asia\\Tomsk',
   'DATA'),
  ('tcl\\tzdata\\Africa\\Johannesburg',
   'l:\\python\\tcl\\tcl8.6\\tzdata\\Africa\\Johannesburg',
   'DATA'),
  ('tcl\\msgs\\kl_gl.msg', 'l:\\python\\tcl\\tcl8.6\\msgs\\kl_gl.msg', 'DATA'),
  ('tcl\\tzdata\\Asia\\Dili',
   'l:\\python\\tcl\\tcl8.6\\tzdata\\Asia\\Dili',
   'DATA'),
  ('tcl\\encoding\\iso8859-1.enc',
   'l:\\python\\tcl\\tcl8.6\\encoding\\iso8859-1.enc',
   'DATA'),
  ('tcl\\tzdata\\America\\Shiprock',
   'l:\\python\\tcl\\tcl8.6\\tzdata\\America\\Shiprock',
   'DATA'),
  ('tcl\\msgs\\ms_my.msg', 'l:\\python\\tcl\\tcl8.6\\msgs\\ms_my.msg', 'DATA'),
  ('tcl\\tzdata\\America\\Boa_Vista',
   'l:\\python\\tcl\\tcl8.6\\tzdata\\America\\Boa_Vista',
   'DATA'),
  ('tcl\\msgs\\hi_in.msg', 'l:\\python\\tcl\\tcl8.6\\msgs\\hi_in.msg', 'DATA'),
  ('tcl\\tzdata\\Pacific\\Palau',
   'l:\\python\\tcl\\tcl8.6\\tzdata\\Pacific\\Palau',
   'DATA'),
  ('tcl\\msgs\\id.msg', 'l:\\python\\tcl\\tcl8.6\\msgs\\id.msg', 'DATA'),
  ('tcl\\tzdata\\Pacific\\Noumea',
   'l:\\python\\tcl\\tcl8.6\\tzdata\\Pacific\\Noumea',
   'DATA'),
  ('tcl\\encoding\\iso8859-6.enc',
   'l:\\python\\tcl\\tcl8.6\\encoding\\iso8859-6.enc',
   'DATA'),
  ('tcl\\tzdata\\MST7MDT', 'l:\\python\\tcl\\tcl8.6\\tzdata\\MST7MDT', 'DATA'),
  ('tcl\\encoding\\shiftjis.enc',
   'l:\\python\\tcl\\tcl8.6\\encoding\\shiftjis.enc',
   'DATA'),
  ('tk\\mkpsenc.tcl', 'l:\\python\\tcl\\tk8.6\\mkpsenc.tcl', 'DATA'),
  ('tcl\\msgs\\en_ph.msg', 'l:\\python\\tcl\\tcl8.6\\msgs\\en_ph.msg', 'DATA'),
  ('tcl\\tzdata\\America\\Tijuana',
   'l:\\python\\tcl\\tcl8.6\\tzdata\\America\\Tijuana',
   'DATA'),
  ('tcl\\encoding\\symbol.enc',
   'l:\\python\\tcl\\tcl8.6\\encoding\\symbol.enc',
   'DATA'),
  ('tcl\\tzdata\\US\\Hawaii',
   'l:\\python\\tcl\\tcl8.6\\tzdata\\US\\Hawaii',
   'DATA'),
  ('tcl\\tzdata\\Etc\\GMT-6',
   'l:\\python\\tcl\\tcl8.6\\tzdata\\Etc\\GMT-6',
   'DATA'),
  ('tcl\\tzdata\\Asia\\Jayapura',
   'l:\\python\\tcl\\tcl8.6\\tzdata\\Asia\\Jayapura',
   'DATA'),
  ('tcl\\tzdata\\America\\St_Lucia',
   'l:\\python\\tcl\\tcl8.6\\tzdata\\America\\St_Lucia',
   'DATA'),
  ('tcl\\tzdata\\America\\Chihuahua',
   'l:\\python\\tcl\\tcl8.6\\tzdata\\America\\Chihuahua',
   'DATA'),
  ('tcl\\tzdata\\Europe\\Istanbul',
   'l:\\python\\tcl\\tcl8.6\\tzdata\\Europe\\Istanbul',
   'DATA'),
  ('tcl\\tzdata\\Europe\\Sarajevo',
   'l:\\python\\tcl\\tcl8.6\\tzdata\\Europe\\Sarajevo',
   'DATA'),
  ('tcl\\tzdata\\Asia\\Tehran',
   'l:\\python\\tcl\\tcl8.6\\tzdata\\Asia\\Tehran',
   'DATA'),
  ('tcl\\encoding\\cp1254.enc',
   'l:\\python\\tcl\\tcl8.6\\encoding\\cp1254.enc',
   'DATA'),
  ('tk\\safetk.tcl', 'l:\\python\\tcl\\tk8.6\\safetk.tcl', 'DATA'),
  ('tcl\\tzdata\\Africa\\Banjul',
   'l:\\python\\tcl\\tcl8.6\\tzdata\\Africa\\Banjul',
   'DATA'),
  ('tk\\msgs\\en.msg', 'l:\\python\\tcl\\tk8.6\\msgs\\en.msg', 'DATA'),
  ('tcl\\tzdata\\Asia\\Tokyo',
   'l:\\python\\tcl\\tcl8.6\\tzdata\\Asia\\Tokyo',
   'DATA'),
  ('tk\\msgs\\es.msg', 'l:\\python\\tcl\\tk8.6\\msgs\\es.msg', 'DATA'),
  ('tcl\\tzdata\\Antarctica\\Palmer',
   'l:\\python\\tcl\\tcl8.6\\tzdata\\Antarctica\\Palmer',
   'DATA'),
  ('tcl\\msgs\\en_sg.msg', 'l:\\python\\tcl\\tcl8.6\\msgs\\en_sg.msg', 'DATA'),
  ('tcl\\encoding\\cp1253.enc',
   'l:\\python\\tcl\\tcl8.6\\encoding\\cp1253.enc',
   'DATA'),
  ('tk\\ttk\\clamTheme.tcl',
   'l:\\python\\tcl\\tk8.6\\ttk\\clamTheme.tcl',
   'DATA'),
  ('tcl\\parray.tcl', 'l:\\python\\tcl\\tcl8.6\\parray.tcl', 'DATA'),
  ('tcl\\tzdata\\America\\St_Vincent',
   'l:\\python\\tcl\\tcl8.6\\tzdata\\America\\St_Vincent',
   'DATA'),
  ('tcl8\\8.4\\platform\\shell-1.1.4.tm',
   'l:\\python\\tcl\\tcl8.6\\..\\tcl8\\8.4\\platform\\shell-1.1.4.tm',
   'DATA'),
  ('tcl\\tzdata\\Asia\\Makassar',
   'l:\\python\\tcl\\tcl8.6\\tzdata\\Asia\\Makassar',
   'DATA'),
  ('tcl\\tzdata\\Africa\\Bissau',
   'l:\\python\\tcl\\tcl8.6\\tzdata\\Africa\\Bissau',
   'DATA'),
  ('tcl\\tzdata\\Europe\\Tallinn',
   'l:\\python\\tcl\\tcl8.6\\tzdata\\Europe\\Tallinn',
   'DATA'),
  ('tcl\\msgs\\es_mx.msg', 'l:\\python\\tcl\\tcl8.6\\msgs\\es_mx.msg', 'DATA'),
  ('tcl\\tzdata\\Europe\\Madrid',
   'l:\\python\\tcl\\tcl8.6\\tzdata\\Europe\\Madrid',
   'DATA'),
  ('tcl\\tzdata\\Atlantic\\Stanley',
   'l:\\python\\tcl\\tcl8.6\\tzdata\\Atlantic\\Stanley',
   'DATA'),
  ('tcl\\msgs\\ta_in.msg', 'l:\\python\\tcl\\tcl8.6\\msgs\\ta_in.msg', 'DATA'),
  ('tcl\\tzdata\\Pacific\\Tahiti',
   'l:\\python\\tcl\\tcl8.6\\tzdata\\Pacific\\Tahiti',
   'DATA'),
  ('tcl\\tzdata\\Australia\\Lindeman',
   'l:\\python\\tcl\\tcl8.6\\tzdata\\Australia\\Lindeman',
   'DATA'),
  ('tcl\\encoding\\cp1250.enc',
   'l:\\python\\tcl\\tcl8.6\\encoding\\cp1250.enc',
   'DATA'),
  ('tcl\\tzdata\\America\\Fort_Nelson',
   'l:\\python\\tcl\\tcl8.6\\tzdata\\America\\Fort_Nelson',
   'DATA'),
  ('tcl\\tzdata\\America\\Argentina\\Jujuy',
   'l:\\python\\tcl\\tcl8.6\\tzdata\\America\\Argentina\\Jujuy',
   'DATA'),
  ('tcl\\tzdata\\America\\Resolute',
   'l:\\python\\tcl\\tcl8.6\\tzdata\\America\\Resolute',
   'DATA'),
  ('tcl\\tzdata\\Asia\\Dacca',
   'l:\\python\\tcl\\tcl8.6\\tzdata\\Asia\\Dacca',
   'DATA'),
  ('tcl\\tzdata\\Africa\\Kigali',
   'l:\\python\\tcl\\tcl8.6\\tzdata\\Africa\\Kigali',
   'DATA'),
  ('tcl\\tzdata\\Africa\\Nairobi',
   'l:\\python\\tcl\\tcl8.6\\tzdata\\Africa\\Nairobi',
   'DATA'),
  ('tcl\\msgs\\te_in.msg', 'l:\\python\\tcl\\tcl8.6\\msgs\\te_in.msg', 'DATA'),
  ('tcl\\tzdata\\Asia\\Vladivostok',
   'l:\\python\\tcl\\tcl8.6\\tzdata\\Asia\\Vladivostok',
   'DATA'),
  ('tcl\\tzdata\\America\\Dawson_Creek',
   'l:\\python\\tcl\\tcl8.6\\tzdata\\America\\Dawson_Creek',
   'DATA'),
  ('tcl\\tzdata\\Asia\\Ho_Chi_Minh',
   'l:\\python\\tcl\\tcl8.6\\tzdata\\Asia\\Ho_Chi_Minh',
   'DATA'),
  ('tcl\\tzdata\\Europe\\Nicosia',
   'l:\\python\\tcl\\tcl8.6\\tzdata\\Europe\\Nicosia',
   'DATA'),
  ('tcl\\tzdata\\America\\St_Johns',
   'l:\\python\\tcl\\tcl8.6\\tzdata\\America\\St_Johns',
   'DATA'),
  ('tcl\\history.tcl', 'l:\\python\\tcl\\tcl8.6\\history.tcl', 'DATA'),
  ('tcl\\encoding\\gb2312.enc',
   'l:\\python\\tcl\\tcl8.6\\encoding\\gb2312.enc',
   'DATA'),
  ('tcl\\tzdata\\Asia\\Thimphu',
   'l:\\python\\tcl\\tcl8.6\\tzdata\\Asia\\Thimphu',
   'DATA'),
  ('tcl\\tzdata\\Pacific\\Pago_Pago',
   'l:\\python\\tcl\\tcl8.6\\tzdata\\Pacific\\Pago_Pago',
   'DATA'),
  ('tcl\\tzdata\\America\\Rankin_Inlet',
   'l:\\python\\tcl\\tcl8.6\\tzdata\\America\\Rankin_Inlet',
   'DATA'),
  ('tcl\\msgs\\fo_fo.msg', 'l:\\python\\tcl\\tcl8.6\\msgs\\fo_fo.msg', 'DATA'),
  ('tcl\\tzdata\\America\\Hermosillo',
   'l:\\python\\tcl\\tcl8.6\\tzdata\\America\\Hermosillo',
   'DATA'),
  ('tcl\\msgs\\pt_br.msg', 'l:\\python\\tcl\\tcl8.6\\msgs\\pt_br.msg', 'DATA'),
  ('tk\\panedwindow.tcl', 'l:\\python\\tcl\\tk8.6\\panedwindow.tcl', 'DATA'),
  ('tcl\\tzdata\\Zulu', 'l:\\python\\tcl\\tcl8.6\\tzdata\\Zulu', 'DATA'),
  ('tcl\\tzdata\\EST', 'l:\\python\\tcl\\tcl8.6\\tzdata\\EST', 'DATA'),
  ('tcl\\tzdata\\Asia\\Yakutsk',
   'l:\\python\\tcl\\tcl8.6\\tzdata\\Asia\\Yakutsk',
   'DATA'),
  ('tcl\\tzdata\\W-SU', 'l:\\python\\tcl\\tcl8.6\\tzdata\\W-SU', 'DATA'),
  ('tcl\\msgs\\es_hn.msg', 'l:\\python\\tcl\\tcl8.6\\msgs\\es_hn.msg', 'DATA'),
  ('tk\\msgs\\nl.msg', 'l:\\python\\tcl\\tk8.6\\msgs\\nl.msg', 'DATA'),
  ('tcl\\tzdata\\Asia\\Aqtobe',
   'l:\\python\\tcl\\tcl8.6\\tzdata\\Asia\\Aqtobe',
   'DATA'),
  ('tcl\\tzdata\\America\\Louisville',
   'l:\\python\\tcl\\tcl8.6\\tzdata\\America\\Louisville',
   'DATA'),
  ('tk\\images\\logoMed.gif',
   'l:\\python\\tcl\\tk8.6\\images\\logoMed.gif',
   'DATA'),
  ('tcl\\tzdata\\Pacific\\Ponape',
   'l:\\python\\tcl\\tcl8.6\\tzdata\\Pacific\\Ponape',
   'DATA'),
  ('tcl\\tzdata\\America\\Maceio',
   'l:\\python\\tcl\\tcl8.6\\tzdata\\America\\Maceio',
   'DATA'),
  ('tcl\\tzdata\\Etc\\GMT+10',
   'l:\\python\\tcl\\tcl8.6\\tzdata\\Etc\\GMT+10',
   'DATA'),
  ('tcl\\tzdata\\Europe\\Simferopol',
   'l:\\python\\tcl\\tcl8.6\\tzdata\\Europe\\Simferopol',
   'DATA'),
  ('tcl\\tzdata\\Etc\\UTC',
   'l:\\python\\tcl\\tcl8.6\\tzdata\\Etc\\UTC',
   'DATA'),
  ('tk\\clrpick.tcl', 'l:\\python\\tcl\\tk8.6\\clrpick.tcl', 'DATA'),
  ('tk\\images\\pwrdLogo175.gif',
   'l:\\python\\tcl\\tk8.6\\images\\pwrdLogo175.gif',
   'DATA'),
  ('tcl\\encoding\\iso8859-4.enc',
   'l:\\python\\tcl\\tcl8.6\\encoding\\iso8859-4.enc',
   'DATA'),
  ('tcl\\tzdata\\UCT', 'l:\\python\\tcl\\tcl8.6\\tzdata\\UCT', 'DATA'),
  ('tcl\\msgs\\fo.msg', 'l:\\python\\tcl\\tcl8.6\\msgs\\fo.msg', 'DATA'),
  ('tcl\\tzdata\\Asia\\Chita',
   'l:\\python\\tcl\\tcl8.6\\tzdata\\Asia\\Chita',
   'DATA'),
  ('tcl\\tzdata\\Asia\\Aqtau',
   'l:\\python\\tcl\\tcl8.6\\tzdata\\Asia\\Aqtau',
   'DATA'),
  ('tcl\\encoding\\iso2022.enc',
   'l:\\python\\tcl\\tcl8.6\\encoding\\iso2022.enc',
   'DATA'),
  ('tcl\\tzdata\\Europe\\Monaco',
   'l:\\python\\tcl\\tcl8.6\\tzdata\\Europe\\Monaco',
   'DATA'),
  ('tcl\\tzdata\\Jamaica', 'l:\\python\\tcl\\tcl8.6\\tzdata\\Jamaica', 'DATA'),
  ('tcl\\tzdata\\Europe\\Belgrade',
   'l:\\python\\tcl\\tcl8.6\\tzdata\\Europe\\Belgrade',
   'DATA'),
  ('tcl\\tzdata\\Brazil\\Acre',
   'l:\\python\\tcl\\tcl8.6\\tzdata\\Brazil\\Acre',
   'DATA'),
  ('tcl\\tzdata\\Asia\\Kathmandu',
   'l:\\python\\tcl\\tcl8.6\\tzdata\\Asia\\Kathmandu',
   'DATA'),
  ('tcl\\tzdata\\Europe\\Ljubljana',
   'l:\\python\\tcl\\tcl8.6\\tzdata\\Europe\\Ljubljana',
   'DATA'),
  ('tcl\\msgs\\zh_tw.msg', 'l:\\python\\tcl\\tcl8.6\\msgs\\zh_tw.msg', 'DATA'),
  ('tcl\\tzdata\\America\\Punta_Arenas',
   'l:\\python\\tcl\\tcl8.6\\tzdata\\America\\Punta_Arenas',
   'DATA'),
  ('tcl\\tzdata\\America\\Argentina\\Catamarca',
   'l:\\python\\tcl\\tcl8.6\\tzdata\\America\\Argentina\\Catamarca',
   'DATA'),
  ('tcl\\tzdata\\Asia\\Harbin',
   'l:\\python\\tcl\\tcl8.6\\tzdata\\Asia\\Harbin',
   'DATA'),
  ('tcl\\tzdata\\SystemV\\PST8',
   'l:\\python\\tcl\\tcl8.6\\tzdata\\SystemV\\PST8',
   'DATA'),
  ('tk\\images\\pwrdLogo200.gif',
   'l:\\python\\tcl\\tk8.6\\images\\pwrdLogo200.gif',
   'DATA'),
  ('tcl\\tzdata\\Cuba', 'l:\\python\\tcl\\tcl8.6\\tzdata\\Cuba', 'DATA'),
  ('tcl\\tzdata\\Asia\\Phnom_Penh',
   'l:\\python\\tcl\\tcl8.6\\tzdata\\Asia\\Phnom_Penh',
   'DATA'),
  ('tcl\\tzdata\\Antarctica\\Davis',
   'l:\\python\\tcl\\tcl8.6\\tzdata\\Antarctica\\Davis',
   'DATA'),
  ('tcl\\tzdata\\Africa\\Sao_Tome',
   'l:\\python\\tcl\\tcl8.6\\tzdata\\Africa\\Sao_Tome',
   'DATA'),
  ('tcl\\encoding\\jis0201.enc',
   'l:\\python\\tcl\\tcl8.6\\encoding\\jis0201.enc',
   'DATA'),
  ('tk\\msgs\\pt.msg', 'l:\\python\\tcl\\tk8.6\\msgs\\pt.msg', 'DATA'),
  ('tcl\\msgs\\id_id.msg', 'l:\\python\\tcl\\tcl8.6\\msgs\\id_id.msg', 'DATA'),
  ('tcl\\tzdata\\Africa\\Harare',
   'l:\\python\\tcl\\tcl8.6\\tzdata\\Africa\\Harare',
   'DATA'),
  ('tcl\\tzdata\\CST6CDT', 'l:\\python\\tcl\\tcl8.6\\tzdata\\CST6CDT', 'DATA'),
  ('tcl\\tzdata\\America\\Chicago',
   'l:\\python\\tcl\\tcl8.6\\tzdata\\America\\Chicago',
   'DATA'),
  ('tcl\\tzdata\\America\\St_Thomas',
   'l:\\python\\tcl\\tcl8.6\\tzdata\\America\\St_Thomas',
   'DATA'),
  ('tk\\tclIndex', 'l:\\python\\tcl\\tk8.6\\tclIndex', 'DATA'),
  ('tcl\\tzdata\\Asia\\Pyongyang',
   'l:\\python\\tcl\\tcl8.6\\tzdata\\Asia\\Pyongyang',
   'DATA'),
  ('tcl\\tzdata\\America\\Creston',
   'l:\\python\\tcl\\tcl8.6\\tzdata\\America\\Creston',
   'DATA'),
  ('tcl\\tzdata\\Australia\\West',
   'l:\\python\\tcl\\tcl8.6\\tzdata\\Australia\\West',
   'DATA'),
  ('tk\\scrlbar.tcl', 'l:\\python\\tcl\\tk8.6\\scrlbar.tcl', 'DATA'),
  ('tcl\\tzdata\\America\\Barbados',
   'l:\\python\\tcl\\tcl8.6\\tzdata\\America\\Barbados',
   'DATA'),
  ('tcl\\tzdata\\Africa\\Tunis',
   'l:\\python\\tcl\\tcl8.6\\tzdata\\Africa\\Tunis',
   'DATA'),
  ('tcl\\tzdata\\America\\Jamaica',
   'l:\\python\\tcl\\tcl8.6\\tzdata\\America\\Jamaica',
   'DATA'),
  ('tcl\\tzdata\\Asia\\Novokuznetsk',
   'l:\\python\\tcl\\tcl8.6\\tzdata\\Asia\\Novokuznetsk',
   'DATA'),
  ('tcl\\tzdata\\America\\Guyana',
   'l:\\python\\tcl\\tcl8.6\\tzdata\\America\\Guyana',
   'DATA'),
  ('tcl\\tzdata\\Africa\\Casablanca',
   'l:\\python\\tcl\\tcl8.6\\tzdata\\Africa\\Casablanca',
   'DATA'),
  ('tk\\ttk\\winTheme.tcl',
   'l:\\python\\tcl\\tk8.6\\ttk\\winTheme.tcl',
   'DATA'),
  ('tcl\\tzdata\\Europe\\Rome',
   'l:\\python\\tcl\\tcl8.6\\tzdata\\Europe\\Rome',
   'DATA'),
  ('tcl\\msgs\\he.msg', 'l:\\python\\tcl\\tcl8.6\\msgs\\he.msg', 'DATA'),
  ('tcl\\tzdata\\Europe\\Paris',
   'l:\\python\\tcl\\tcl8.6\\tzdata\\Europe\\Paris',
   'DATA'),
  ('tcl\\tzdata\\Indian\\Mayotte',
   'l:\\python\\tcl\\tcl8.6\\tzdata\\Indian\\Mayotte',
   'DATA'),
  ('tcl\\tzdata\\Asia\\Thimbu',
   'l:\\python\\tcl\\tcl8.6\\tzdata\\Asia\\Thimbu',
   'DATA'),
  ('tcl\\tzdata\\UTC', 'l:\\python\\tcl\\tcl8.6\\tzdata\\UTC', 'DATA'),
  ('tk\\ttk\\altTheme.tcl',
   'l:\\python\\tcl\\tk8.6\\ttk\\altTheme.tcl',
   'DATA'),
  ('tcl\\tzdata\\Indian\\Reunion',
   'l:\\python\\tcl\\tcl8.6\\tzdata\\Indian\\Reunion',
   'DATA'),
  ('tcl\\tzdata\\America\\Grand_Turk',
   'l:\\python\\tcl\\tcl8.6\\tzdata\\America\\Grand_Turk',
   'DATA'),
  ('tcl\\tzdata\\SystemV\\CST6',
   'l:\\python\\tcl\\tcl8.6\\tzdata\\SystemV\\CST6',
   'DATA'),
  ('tcl\\tzdata\\Etc\\GMT+0',
   'l:\\python\\tcl\\tcl8.6\\tzdata\\Etc\\GMT+0',
   'DATA'),
  ('tcl\\msgs\\es_py.msg', 'l:\\python\\tcl\\tcl8.6\\msgs\\es_py.msg', 'DATA'),
  ('tcl\\encoding\\cp869.enc',
   'l:\\python\\tcl\\tcl8.6\\encoding\\cp869.enc',
   'DATA'),
  ('tcl\\encoding\\macGreek.enc',
   'l:\\python\\tcl\\tcl8.6\\encoding\\macGreek.enc',
   'DATA'),
  ('tcl\\msgs\\ms.msg', 'l:\\python\\tcl\\tcl8.6\\msgs\\ms.msg', 'DATA'),
  ('tcl\\tzdata\\America\\La_Paz',
   'l:\\python\\tcl\\tcl8.6\\tzdata\\America\\La_Paz',
   'DATA'),
  ('tcl\\tzdata\\America\\Recife',
   'l:\\python\\tcl\\tcl8.6\\tzdata\\America\\Recife',
   'DATA'),
  ('tcl\\tzdata\\US\\Alaska',
   'l:\\python\\tcl\\tcl8.6\\tzdata\\US\\Alaska',
   'DATA'),
  ('tcl\\tzdata\\Africa\\Monrovia',
   'l:\\python\\tcl\\tcl8.6\\tzdata\\Africa\\Monrovia',
   'DATA'),
  ('tcl\\encoding\\macUkraine.enc',
   'l:\\python\\tcl\\tcl8.6\\encoding\\macUkraine.enc',
   'DATA'),
  ('tcl\\tzdata\\Asia\\Baghdad',
   'l:\\python\\tcl\\tcl8.6\\tzdata\\Asia\\Baghdad',
   'DATA'),
  ('tcl\\tzdata\\SystemV\\PST8PDT',
   'l:\\python\\tcl\\tcl8.6\\tzdata\\SystemV\\PST8PDT',
   'DATA'),
  ('tcl\\msgs\\af_za.msg', 'l:\\python\\tcl\\tcl8.6\\msgs\\af_za.msg', 'DATA'),
  ('tcl\\tzdata\\Antarctica\\Mawson',
   'l:\\python\\tcl\\tcl8.6\\tzdata\\Antarctica\\Mawson',
   'DATA'),
  ('tcl\\tzdata\\America\\Argentina\\San_Juan',
   'l:\\python\\tcl\\tcl8.6\\tzdata\\America\\Argentina\\San_Juan',
   'DATA'),
  ('tcl\\auto.tcl', 'l:\\python\\tcl\\tcl8.6\\auto.tcl', 'DATA'),
  ('tcl\\tzdata\\Etc\\GMT+11',
   'l:\\python\\tcl\\tcl8.6\\tzdata\\Etc\\GMT+11',
   'DATA'),
  ('tcl\\tzdata\\America\\St_Barthelemy',
   'l:\\python\\tcl\\tcl8.6\\tzdata\\America\\St_Barthelemy',
   'DATA'),
  ('tcl\\msgs\\en_hk.msg', 'l:\\python\\tcl\\tcl8.6\\msgs\\en_hk.msg', 'DATA'),
  ('tcl\\encoding\\jis0212.enc',
   'l:\\python\\tcl\\tcl8.6\\encoding\\jis0212.enc',
   'DATA'),
  ('tk\\dialog.tcl', 'l:\\python\\tcl\\tk8.6\\dialog.tcl', 'DATA'),
  ('tcl\\tzdata\\Canada\\Atlantic',
   'l:\\python\\tcl\\tcl8.6\\tzdata\\Canada\\Atlantic',
   'DATA'),
  ('tk\\ttk\\panedwindow.tcl',
   'l:\\python\\tcl\\tk8.6\\ttk\\panedwindow.tcl',
   'DATA'),
  ('tk\\unsupported.tcl', 'l:\\python\\tcl\\tk8.6\\unsupported.tcl', 'DATA'),
  ('tk\\ttk\\fonts.tcl', 'l:\\python\\tcl\\tk8.6\\ttk\\fonts.tcl', 'DATA'),
  ('tcl\\tzdata\\Etc\\GMT-7',
   'l:\\python\\tcl\\tcl8.6\\tzdata\\Etc\\GMT-7',
   'DATA'),
  ('tcl\\tzdata\\Africa\\Lubumbashi',
   'l:\\python\\tcl\\tcl8.6\\tzdata\\Africa\\Lubumbashi',
   'DATA'),
  ('tcl\\tzdata\\America\\Bahia',
   'l:\\python\\tcl\\tcl8.6\\tzdata\\America\\Bahia',
   'DATA'),
  ('tcl\\tzdata\\Atlantic\\South_Georgia',
   'l:\\python\\tcl\\tcl8.6\\tzdata\\Atlantic\\South_Georgia',
   'DATA'),
  ('tcl\\tzdata\\Asia\\Aden',
   'l:\\python\\tcl\\tcl8.6\\tzdata\\Asia\\Aden',
   'DATA'),
  ('tcl\\msgs\\ca.msg', 'l:\\python\\tcl\\tcl8.6\\msgs\\ca.msg', 'DATA'),
  ('tcl\\tzdata\\Asia\\Kolkata',
   'l:\\python\\tcl\\tcl8.6\\tzdata\\Asia\\Kolkata',
   'DATA'),
  ('tcl\\tzdata\\Etc\\UCT',
   'l:\\python\\tcl\\tcl8.6\\tzdata\\Etc\\UCT',
   'DATA'),
  ('tcl\\msgs\\lv.msg', 'l:\\python\\tcl\\tcl8.6\\msgs\\lv.msg', 'DATA'),
  ('tcl\\tzdata\\Etc\\GMT+4',
   'l:\\python\\tcl\\tcl8.6\\tzdata\\Etc\\GMT+4',
   'DATA'),
  ('tk\\images\\pwrdLogo.eps',
   'l:\\python\\tcl\\tk8.6\\images\\pwrdLogo.eps',
   'DATA'),
  ('tcl\\msgs\\zh_cn.msg', 'l:\\python\\tcl\\tcl8.6\\msgs\\zh_cn.msg', 'DATA'),
  ('tcl\\tzdata\\Europe\\Malta',
   'l:\\python\\tcl\\tcl8.6\\tzdata\\Europe\\Malta',
   'DATA'),
  ('tcl\\tzdata\\America\\Argentina\\Tucuman',
   'l:\\python\\tcl\\tcl8.6\\tzdata\\America\\Argentina\\Tucuman',
   'DATA'),
  ('tcl\\tzdata\\America\\Atikokan',
   'l:\\python\\tcl\\tcl8.6\\tzdata\\America\\Atikokan',
   'DATA'),
  ('tcl\\tzdata\\America\\Indiana\\Marengo',
   'l:\\python\\tcl\\tcl8.6\\tzdata\\America\\Indiana\\Marengo',
   'DATA'),
  ('tcl\\tzdata\\GB-Eire', 'l:\\python\\tcl\\tcl8.6\\tzdata\\GB-Eire', 'DATA'),
  ('tcl\\msgs\\es_sv.msg', 'l:\\python\\tcl\\tcl8.6\\msgs\\es_sv.msg', 'DATA'),
  ('tcl\\tzdata\\America\\Rainy_River',
   'l:\\python\\tcl\\tcl8.6\\tzdata\\America\\Rainy_River',
   'DATA'),
  ('tcl\\encoding\\cp861.enc',
   'l:\\python\\tcl\\tcl8.6\\encoding\\cp861.enc',
   'DATA'),
  ('tcl\\tzdata\\America\\Atka',
   'l:\\python\\tcl\\tcl8.6\\tzdata\\America\\Atka',
   'DATA'),
  ('tk\\ttk\\button.tcl', 'l:\\python\\tcl\\tk8.6\\ttk\\button.tcl', 'DATA'),
  ('tcl\\tzdata\\Pacific\\Wallis',
   'l:\\python\\tcl\\tcl8.6\\tzdata\\Pacific\\Wallis',
   'DATA'),
  ('tcl\\tzdata\\America\\Regina',
   'l:\\python\\tcl\\tcl8.6\\tzdata\\America\\Regina',
   'DATA'),
  ('tk\\optMenu.tcl', 'l:\\python\\tcl\\tk8.6\\optMenu.tcl', 'DATA'),
  ('tcl\\msgs\\en_au.msg', 'l:\\python\\tcl\\tcl8.6\\msgs\\en_au.msg', 'DATA'),
  ('tcl\\msgs\\ga_ie.msg', 'l:\\python\\tcl\\tcl8.6\\msgs\\ga_ie.msg', 'DATA'),
  ('tk\\text.tcl', 'l:\\python\\tcl\\tk8.6\\text.tcl', 'DATA'),
  ('tcl\\tzdata\\America\\Ojinaga',
   'l:\\python\\tcl\\tcl8.6\\tzdata\\America\\Ojinaga',
   'DATA'),
  ('tcl\\tzdata\\Israel', 'l:\\python\\tcl\\tcl8.6\\tzdata\\Israel', 'DATA'),
  ('tcl\\tzdata\\Asia\\Oral',
   'l:\\python\\tcl\\tcl8.6\\tzdata\\Asia\\Oral',
   'DATA'),
  ('tcl\\tzdata\\America\\Santo_Domingo',
   'l:\\python\\tcl\\tcl8.6\\tzdata\\America\\Santo_Domingo',
   'DATA'),
  ('tcl\\tzdata\\America\\North_Dakota\\New_Salem',
   'l:\\python\\tcl\\tcl8.6\\tzdata\\America\\North_Dakota\\New_Salem',
   'DATA'),
  ('tcl\\msgs\\en_ie.msg', 'l:\\python\\tcl\\tcl8.6\\msgs\\en_ie.msg', 'DATA'),
  ('tcl\\tzdata\\Asia\\Beirut',
   'l:\\python\\tcl\\tcl8.6\\tzdata\\Asia\\Beirut',
   'DATA'),
  ('tcl\\tzdata\\America\\Cordoba',
   'l:\\python\\tcl\\tcl8.6\\tzdata\\America\\Cordoba',
   'DATA'),
  ('tcl\\opt0.4\\optparse.tcl',
   'l:\\python\\tcl\\tcl8.6\\opt0.4\\optparse.tcl',
   'DATA'),
  ('tcl\\tzdata\\America\\Inuvik',
   'l:\\python\\tcl\\tcl8.6\\tzdata\\America\\Inuvik',
   'DATA'),
  ('tcl\\msgs\\sq.msg', 'l:\\python\\tcl\\tcl8.6\\msgs\\sq.msg', 'DATA'),
  ('tk\\images\\logo100.gif',
   'l:\\python\\tcl\\tk8.6\\images\\logo100.gif',
   'DATA'),
  ('tcl\\tzdata\\Indian\\Mahe',
   'l:\\python\\tcl\\tcl8.6\\tzdata\\Indian\\Mahe',
   'DATA'),
  ('tcl\\msgs\\es_co.msg', 'l:\\python\\tcl\\tcl8.6\\msgs\\es_co.msg', 'DATA'),
  ('tcl\\tzdata\\PRC', 'l:\\python\\tcl\\tcl8.6\\tzdata\\PRC', 'DATA'),
  ('tcl\\tzdata\\America\\Dominica',
   'l:\\python\\tcl\\tcl8.6\\tzdata\\America\\Dominica',
   'DATA'),
  ('tk\\ttk\\ttk.tcl', 'l:\\python\\tcl\\tk8.6\\ttk\\ttk.tcl', 'DATA'),
  ('tcl\\msgs\\bn.msg', 'l:\\python\\tcl\\tcl8.6\\msgs\\bn.msg', 'DATA'),
  ('tcl\\tzdata\\America\\Edmonton',
   'l:\\python\\tcl\\tcl8.6\\tzdata\\America\\Edmonton',
   'DATA'),
  ('tcl\\tzdata\\America\\Manaus',
   'l:\\python\\tcl\\tcl8.6\\tzdata\\America\\Manaus',
   'DATA'),
  ('tcl\\tzdata\\Asia\\Choibalsan',
   'l:\\python\\tcl\\tcl8.6\\tzdata\\Asia\\Choibalsan',
   'DATA'),
  ('tcl\\tzdata\\America\\Miquelon',
   'l:\\python\\tcl\\tcl8.6\\tzdata\\America\\Miquelon',
   'DATA'),
  ('tcl\\encoding\\dingbats.enc',
   'l:\\python\\tcl\\tcl8.6\\encoding\\dingbats.enc',
   'DATA'),
  ('tk\\msgs\\fr.msg', 'l:\\python\\tcl\\tk8.6\\msgs\\fr.msg', 'DATA'),
  ('tk\\images\\logo64.gif',
   'l:\\python\\tcl\\tk8.6\\images\\logo64.gif',
   'DATA'),
  ('tcl\\tzdata\\Asia\\Taipei',
   'l:\\python\\tcl\\tcl8.6\\tzdata\\Asia\\Taipei',
   'DATA'),
  ('tcl\\tzdata\\Asia\\Kuala_Lumpur',
   'l:\\python\\tcl\\tcl8.6\\tzdata\\Asia\\Kuala_Lumpur',
   'DATA'),
  ('tcl\\tzdata\\Indian\\Comoro',
   'l:\\python\\tcl\\tcl8.6\\tzdata\\Indian\\Comoro',
   'DATA'),
  ('tcl\\msgs\\mt.msg', 'l:\\python\\tcl\\tcl8.6\\msgs\\mt.msg', 'DATA'),
  ('tcl\\tzdata\\Asia\\Macau',
   'l:\\python\\tcl\\tcl8.6\\tzdata\\Asia\\Macau',
   'DATA'),
  ('tcl\\tzdata\\America\\Antigua',
   'l:\\python\\tcl\\tcl8.6\\tzdata\\America\\Antigua',
   'DATA'),
  ('tcl\\tzdata\\America\\Bahia_Banderas',
   'l:\\python\\tcl\\tcl8.6\\tzdata\\America\\Bahia_Banderas',
   'DATA'),
  ('tcl\\tzdata\\Atlantic\\Jan_Mayen',
   'l:\\python\\tcl\\tcl8.6\\tzdata\\Atlantic\\Jan_Mayen',
   'DATA'),
  ('tcl\\tzdata\\Pacific\\Tongatapu',
   'l:\\python\\tcl\\tcl8.6\\tzdata\\Pacific\\Tongatapu',
   'DATA'),
  ('tcl\\encoding\\cp865.enc',
   'l:\\python\\tcl\\tcl8.6\\encoding\\cp865.enc',
   'DATA'),
  ('tcl\\msgs\\es_pe.msg', 'l:\\python\\tcl\\tcl8.6\\msgs\\es_pe.msg', 'DATA'),
  ('tcl\\encoding\\cp850.enc',
   'l:\\python\\tcl\\tcl8.6\\encoding\\cp850.enc',
   'DATA'),
  ('tcl\\init.tcl', 'l:\\python\\tcl\\tcl8.6\\init.tcl', 'DATA'),
  ('tcl\\msgs\\es_ni.msg', 'l:\\python\\tcl\\tcl8.6\\msgs\\es_ni.msg', 'DATA'),
  ('tcl\\tzdata\\America\\Montreal',
   'l:\\python\\tcl\\tcl8.6\\tzdata\\America\\Montreal',
   'DATA'),
  ('tcl\\tzdata\\Australia\\ACT',
   'l:\\python\\tcl\\tcl8.6\\tzdata\\Australia\\ACT',
   'DATA'),
  ('tcl\\tzdata\\America\\Whitehorse',
   'l:\\python\\tcl\\tcl8.6\\tzdata\\America\\Whitehorse',
   'DATA'),
  ('tcl\\tzdata\\Canada\\Mountain',
   'l:\\python\\tcl\\tcl8.6\\tzdata\\Canada\\Mountain',
   'DATA'),
  ('tk\\bgerror.tcl', 'l:\\python\\tcl\\tk8.6\\bgerror.tcl', 'DATA'),
  ('tcl\\encoding\\euc-jp.enc',
   'l:\\python\\tcl\\tcl8.6\\encoding\\euc-jp.enc',
   'DATA'),
  ('tcl\\tzdata\\America\\Kentucky\\Louisville',
   'l:\\python\\tcl\\tcl8.6\\tzdata\\America\\Kentucky\\Louisville',
   'DATA'),
  ('tcl\\tzdata\\HST', 'l:\\python\\tcl\\tcl8.6\\tzdata\\HST', 'DATA'),
  ('tcl\\tzdata\\Asia\\Hong_Kong',
   'l:\\python\\tcl\\tcl8.6\\tzdata\\Asia\\Hong_Kong',
   'DATA'),
  ('tcl\\msgs\\vi.msg', 'l:\\python\\tcl\\tcl8.6\\msgs\\vi.msg', 'DATA'),
  ('tcl\\tzdata\\Pacific\\Easter',
   'l:\\python\\tcl\\tcl8.6\\tzdata\\Pacific\\Easter',
   'DATA'),
  ('tcl\\tzdata\\Pacific\\Kiritimati',
   'l:\\python\\tcl\\tcl8.6\\tzdata\\Pacific\\Kiritimati',
   'DATA'),
  ('tcl8\\8.6\\http-2.9.0.tm',
   'l:\\python\\tcl\\tcl8.6\\..\\tcl8\\8.6\\http-2.9.0.tm',
   'DATA'),
  ('tcl\\tzdata\\Canada\\Central',
   'l:\\python\\tcl\\tcl8.6\\tzdata\\Canada\\Central',
   'DATA'),
  ('tcl\\tzdata\\Canada\\Newfoundland',
   'l:\\python\\tcl\\tcl8.6\\tzdata\\Canada\\Newfoundland',
   'DATA'),
  ('tcl\\msgs\\et.msg', 'l:\\python\\tcl\\tcl8.6\\msgs\\et.msg', 'DATA'),
  ('tk\\xmfbox.tcl', 'l:\\python\\tcl\\tk8.6\\xmfbox.tcl', 'DATA'),
  ('tcl\\tzdata\\Asia\\Kamchatka',
   'l:\\python\\tcl\\tcl8.6\\tzdata\\Asia\\Kamchatka',
   'DATA'),
  ('tcl\\tzdata\\America\\Tortola',
   'l:\\python\\tcl\\tcl8.6\\tzdata\\America\\Tortola',
   'DATA'),
  ('tcl\\tzdata\\America\\Monterrey',
   'l:\\python\\tcl\\tcl8.6\\tzdata\\America\\Monterrey',
   'DATA'),
  ('tcl\\tzdata\\Europe\\Tirane',
   'l:\\python\\tcl\\tcl8.6\\tzdata\\Europe\\Tirane',
   'DATA'),
  ('tcl\\tzdata\\GMT+0', 'l:\\python\\tcl\\tcl8.6\\tzdata\\GMT+0', 'DATA'),
  ('tcl\\tzdata\\Canada\\Eastern',
   'l:\\python\\tcl\\tcl8.6\\tzdata\\Canada\\Eastern',
   'DATA'),
  ('tcl\\tzdata\\Africa\\Bujumbura',
   'l:\\python\\tcl\\tcl8.6\\tzdata\\Africa\\Bujumbura',
   'DATA'),
  ('tcl\\tzdata\\Australia\\South',
   'l:\\python\\tcl\\tcl8.6\\tzdata\\Australia\\South',
   'DATA'),
  ('tcl\\tzdata\\Europe\\Budapest',
   'l:\\python\\tcl\\tcl8.6\\tzdata\\Europe\\Budapest',
   'DATA'),
  ('tcl\\tzdata\\Europe\\Vaduz',
   'l:\\python\\tcl\\tcl8.6\\tzdata\\Europe\\Vaduz',
   'DATA'),
  ('tcl\\tzdata\\Australia\\Queensland',
   'l:\\python\\tcl\\tcl8.6\\tzdata\\Australia\\Queensland',
   'DATA'),
  ('tk\\fontchooser.tcl', 'l:\\python\\tcl\\tk8.6\\fontchooser.tcl', 'DATA'),
  ('tcl\\msgs\\sk.msg', 'l:\\python\\tcl\\tcl8.6\\msgs\\sk.msg', 'DATA'),
  ('tcl\\opt0.4\\pkgIndex.tcl',
   'l:\\python\\tcl\\tcl8.6\\opt0.4\\pkgIndex.tcl',
   'DATA'),
  ('tcl\\msgs\\eo.msg', 'l:\\python\\tcl\\tcl8.6\\msgs\\eo.msg', 'DATA'),
  ('tcl\\tzdata\\Asia\\Bangkok',
   'l:\\python\\tcl\\tcl8.6\\tzdata\\Asia\\Bangkok',
   'DATA'),
  ('tcl\\tzdata\\Asia\\Nicosia',
   'l:\\python\\tcl\\tcl8.6\\tzdata\\Asia\\Nicosia',
   'DATA'),
  ('tcl\\msgs\\en_gb.msg', 'l:\\python\\tcl\\tcl8.6\\msgs\\en_gb.msg', 'DATA'),
  ('tcl\\tzdata\\Europe\\Belfast',
   'l:\\python\\tcl\\tcl8.6\\tzdata\\Europe\\Belfast',
   'DATA'),
  ('tcl\\tzdata\\America\\Goose_Bay',
   'l:\\python\\tcl\\tcl8.6\\tzdata\\America\\Goose_Bay',
   'DATA'),
  ('tcl\\tzdata\\Africa\\Maseru',
   'l:\\python\\tcl\\tcl8.6\\tzdata\\Africa\\Maseru',
   'DATA'),
  ('tcl\\tzdata\\America\\Thunder_Bay',
   'l:\\python\\tcl\\tcl8.6\\tzdata\\America\\Thunder_Bay',
   'DATA'),
  ('tcl\\tzdata\\Arctic\\Longyearbyen',
   'l:\\python\\tcl\\tcl8.6\\tzdata\\Arctic\\Longyearbyen',
   'DATA'),
  ('tcl\\tzdata\\Pacific\\Tarawa',
   'l:\\python\\tcl\\tcl8.6\\tzdata\\Pacific\\Tarawa',
   'DATA'),
  ('tcl\\encoding\\iso8859-13.enc',
   'l:\\python\\tcl\\tcl8.6\\encoding\\iso8859-13.enc',
   'DATA'),
  ('tcl\\tzdata\\GB', 'l:\\python\\tcl\\tcl8.6\\tzdata\\GB', 'DATA'),
  ('tk\\ttk\\treeview.tcl',
   'l:\\python\\tcl\\tk8.6\\ttk\\treeview.tcl',
   'DATA'),
  ('tcl\\tzdata\\Atlantic\\Canary',
   'l:\\python\\tcl\\tcl8.6\\tzdata\\Atlantic\\Canary',
   'DATA'),
  ('tcl\\tzdata\\Asia\\Damascus',
   'l:\\python\\tcl\\tcl8.6\\tzdata\\Asia\\Damascus',
   'DATA'),
  ('tcl\\tzdata\\Pacific\\Apia',
   'l:\\python\\tcl\\tcl8.6\\tzdata\\Pacific\\Apia',
   'DATA'),
  ('tcl\\msgs\\zh_hk.msg', 'l:\\python\\tcl\\tcl8.6\\msgs\\zh_hk.msg', 'DATA'),
  ('tcl\\tzdata\\America\\Santiago',
   'l:\\python\\tcl\\tcl8.6\\tzdata\\America\\Santiago',
   'DATA'),
  ('tcl\\tzdata\\Pacific\\Gambier',
   'l:\\python\\tcl\\tcl8.6\\tzdata\\Pacific\\Gambier',
   'DATA'),
  ('tcl\\tzdata\\Atlantic\\Azores',
   'l:\\python\\tcl\\tcl8.6\\tzdata\\Atlantic\\Azores',
   'DATA'),
  ('tcl\\tzdata\\Antarctica\\DumontDUrville',
   'l:\\python\\tcl\\tcl8.6\\tzdata\\Antarctica\\DumontDUrville',
   'DATA'),
  ('tcl\\tzdata\\America\\Denver',
   'l:\\python\\tcl\\tcl8.6\\tzdata\\America\\Denver',
   'DATA'),
  ('tcl\\tzdata\\America\\Montserrat',
   'l:\\python\\tcl\\tcl8.6\\tzdata\\America\\Montserrat',
   'DATA'),
  ('tcl\\msgs\\es_ve.msg', 'l:\\python\\tcl\\tcl8.6\\msgs\\es_ve.msg', 'DATA'),
  ('tcl\\tzdata\\ROC', 'l:\\python\\tcl\\tcl8.6\\tzdata\\ROC', 'DATA'),
  ('tcl\\tclIndex', 'l:\\python\\tcl\\tcl8.6\\tclIndex', 'DATA'),
  ('tcl\\msgs\\ga.msg', 'l:\\python\\tcl\\tcl8.6\\msgs\\ga.msg', 'DATA'),
  ('tcl\\msgs\\sl.msg', 'l:\\python\\tcl\\tcl8.6\\msgs\\sl.msg', 'DATA'),
  ('tcl\\tzdata\\Africa\\Algiers',
   'l:\\python\\tcl\\tcl8.6\\tzdata\\Africa\\Algiers',
   'DATA'),
  ('tcl\\tzdata\\America\\Matamoros',
   'l:\\python\\tcl\\tcl8.6\\tzdata\\America\\Matamoros',
   'DATA'),
  ('tcl\\tzdata\\America\\Boise',
   'l:\\python\\tcl\\tcl8.6\\tzdata\\America\\Boise',
   'DATA'),
  ('tcl\\encoding\\iso8859-9.enc',
   'l:\\python\\tcl\\tcl8.6\\encoding\\iso8859-9.enc',
   'DATA'),
  ('tcl\\tzdata\\Europe\\Gibraltar',
   'l:\\python\\tcl\\tcl8.6\\tzdata\\Europe\\Gibraltar',
   'DATA'),
  ('tcl\\tzdata\\Etc\\GMT-5',
   'l:\\python\\tcl\\tcl8.6\\tzdata\\Etc\\GMT-5',
   'DATA'),
  ('tcl\\tzdata\\Pacific\\Majuro',
   'l:\\python\\tcl\\tcl8.6\\tzdata\\Pacific\\Majuro',
   'DATA'),
  ('tcl\\tzdata\\Pacific\\Enderbury',
   'l:\\python\\tcl\\tcl8.6\\tzdata\\Pacific\\Enderbury',
   'DATA'),
  ('tcl\\tzdata\\America\\Mendoza',
   'l:\\python\\tcl\\tcl8.6\\tzdata\\America\\Mendoza',
   'DATA'),
  ('tcl\\tzdata\\Africa\\Djibouti',
   'l:\\python\\tcl\\tcl8.6\\tzdata\\Africa\\Djibouti',
   'DATA'),
  ('tcl\\tzdata\\Pacific\\Truk',
   'l:\\python\\tcl\\tcl8.6\\tzdata\\Pacific\\Truk',
   'DATA'),
  ('tcl\\tzdata\\Etc\\GMT-4',
   'l:\\python\\tcl\\tcl8.6\\tzdata\\Etc\\GMT-4',
   'DATA'),
  ('tcl\\tzdata\\America\\Sitka',
   'l:\\python\\tcl\\tcl8.6\\tzdata\\America\\Sitka',
   'DATA'),
  ('tcl\\tzdata\\Europe\\Kirov',
   'l:\\python\\tcl\\tcl8.6\\tzdata\\Europe\\Kirov',
   'DATA'),
  ('tcl\\msgs\\en_zw.msg', 'l:\\python\\tcl\\tcl8.6\\msgs\\en_zw.msg', 'DATA'),
  ('tcl\\tzdata\\Africa\\Lome',
   'l:\\python\\tcl\\tcl8.6\\tzdata\\Africa\\Lome',
   'DATA'),
  ('tcl\\tzdata\\Africa\\Juba',
   'l:\\python\\tcl\\tcl8.6\\tzdata\\Africa\\Juba',
   'DATA'),
  ('tcl\\tzdata\\America\\Menominee',
   'l:\\python\\tcl\\tcl8.6\\tzdata\\America\\Menominee',
   'DATA'),
  ('tcl\\tzdata\\America\\Sao_Paulo',
   'l:\\python\\tcl\\tcl8.6\\tzdata\\America\\Sao_Paulo',
   'DATA'),
  ('tk\\ttk\\cursors.tcl', 'l:\\python\\tcl\\tk8.6\\ttk\\cursors.tcl', 'DATA'),
  ('tcl\\tzdata\\Australia\\Yancowinna',
   'l:\\python\\tcl\\tcl8.6\\tzdata\\Australia\\Yancowinna',
   'DATA'),
  ('tcl\\encoding\\cp857.enc',
   'l:\\python\\tcl\\tcl8.6\\encoding\\cp857.enc',
   'DATA'),
  ('tcl\\encoding\\ascii.enc',
   'l:\\python\\tcl\\tcl8.6\\encoding\\ascii.enc',
   'DATA'),
  ('tcl\\tzdata\\America\\Bogota',
   'l:\\python\\tcl\\tcl8.6\\tzdata\\America\\Bogota',
   'DATA'),
  ('tcl\\tzdata\\Europe\\Jersey',
   'l:\\python\\tcl\\tcl8.6\\tzdata\\Europe\\Jersey',
   'DATA'),
  ('tcl\\tzdata\\US\\Pacific',
   'l:\\python\\tcl\\tcl8.6\\tzdata\\US\\Pacific',
   'DATA'),
  ('tcl\\tzdata\\Brazil\\West',
   'l:\\python\\tcl\\tcl8.6\\tzdata\\Brazil\\West',
   'DATA'),
  ('tcl\\tzdata\\Asia\\Istanbul',
   'l:\\python\\tcl\\tcl8.6\\tzdata\\Asia\\Istanbul',
   'DATA'),
  ('tcl\\msgs\\es_pa.msg', 'l:\\python\\tcl\\tcl8.6\\msgs\\es_pa.msg', 'DATA'),
  ('tcl\\msgs\\es_pr.msg', 'l:\\python\\tcl\\tcl8.6\\msgs\\es_pr.msg', 'DATA'),
  ('tcl\\tzdata\\Europe\\Lisbon',
   'l:\\python\\tcl\\tcl8.6\\tzdata\\Europe\\Lisbon',
   'DATA'),
  ('tcl\\tzdata\\Europe\\Riga',
   'l:\\python\\tcl\\tcl8.6\\tzdata\\Europe\\Riga',
   'DATA'),
  ('tcl\\tzdata\\Asia\\Tbilisi',
   'l:\\python\\tcl\\tcl8.6\\tzdata\\Asia\\Tbilisi',
   'DATA'),
  ('tcl\\tzdata\\America\\Porto_Acre',
   'l:\\python\\tcl\\tcl8.6\\tzdata\\America\\Porto_Acre',
   'DATA'),
  ('tk\\ttk\\menubutton.tcl',
   'l:\\python\\tcl\\tk8.6\\ttk\\menubutton.tcl',
   'DATA'),
  ('tcl\\tzdata\\America\\Fort_Wayne',
   'l:\\python\\tcl\\tcl8.6\\tzdata\\America\\Fort_Wayne',
   'DATA'),
  ('tcl\\tzdata\\Indian\\Christmas',
   'l:\\python\\tcl\\tcl8.6\\tzdata\\Indian\\Christmas',
   'DATA'),
  ('tcl\\msgs\\fa_in.msg', 'l:\\python\\tcl\\tcl8.6\\msgs\\fa_in.msg', 'DATA'),
  ('tcl\\encoding\\cp437.enc',
   'l:\\python\\tcl\\tcl8.6\\encoding\\cp437.enc',
   'DATA'),
  ('tcl\\tzdata\\Asia\\Krasnoyarsk',
   'l:\\python\\tcl\\tcl8.6\\tzdata\\Asia\\Krasnoyarsk',
   'DATA'),
  ('tcl\\tzdata\\Etc\\GMT+12',
   'l:\\python\\tcl\\tcl8.6\\tzdata\\Etc\\GMT+12',
   'DATA'),
  ('tcl\\encoding\\cp862.enc',
   'l:\\python\\tcl\\tcl8.6\\encoding\\cp862.enc',
   'DATA'),
  ('tcl\\tzdata\\Europe\\Zaporozhye',
   'l:\\python\\tcl\\tcl8.6\\tzdata\\Europe\\Zaporozhye',
   'DATA'),
  ('tcl\\tzdata\\Antarctica\\South_Pole',
   'l:\\python\\tcl\\tcl8.6\\tzdata\\Antarctica\\South_Pole',
   'DATA'),
  ('tcl\\tzdata\\Asia\\Saigon',
   'l:\\python\\tcl\\tcl8.6\\tzdata\\Asia\\Saigon',
   'DATA'),
  ('tcl\\tzdata\\America\\Aruba',
   'l:\\python\\tcl\\tcl8.6\\tzdata\\America\\Aruba',
   'DATA'),
  ('tcl\\msgs\\es_cr.msg', 'l:\\python\\tcl\\tcl8.6\\msgs\\es_cr.msg', 'DATA'),
  ('tcl\\msgs\\pt.msg', 'l:\\python\\tcl\\tcl8.6\\msgs\\pt.msg', 'DATA'),
  ('tcl\\encoding\\cp874.enc',
   'l:\\python\\tcl\\tcl8.6\\encoding\\cp874.enc',
   'DATA'),
  ('tcl\\tzdata\\Europe\\San_Marino',
   'l:\\python\\tcl\\tcl8.6\\tzdata\\Europe\\San_Marino',
   'DATA'),
  ('tcl\\encoding\\gb12345.enc',
   'l:\\python\\tcl\\tcl8.6\\encoding\\gb12345.enc',
   'DATA'),
  ('tcl\\tzdata\\America\\Danmarkshavn',
   'l:\\python\\tcl\\tcl8.6\\tzdata\\America\\Danmarkshavn',
   'DATA'),
  ('tcl\\tzdata\\Chile\\EasterIsland',
   'l:\\python\\tcl\\tcl8.6\\tzdata\\Chile\\EasterIsland',
   'DATA'),
  ('tcl\\tzdata\\Pacific\\Bougainville',
   'l:\\python\\tcl\\tcl8.6\\tzdata\\Pacific\\Bougainville',
   'DATA'),
  ('tcl\\tzdata\\Canada\\Saskatchewan',
   'l:\\python\\tcl\\tcl8.6\\tzdata\\Canada\\Saskatchewan',
   'DATA'),
  ('tk\\tk.tcl', 'l:\\python\\tcl\\tk8.6\\tk.tcl', 'DATA'),
  ('tcl\\msgs\\it_ch.msg', 'l:\\python\\tcl\\tcl8.6\\msgs\\it_ch.msg', 'DATA'),
  ('tcl\\tzdata\\Pacific\\Fiji',
   'l:\\python\\tcl\\tcl8.6\\tzdata\\Pacific\\Fiji',
   'DATA'),
  ('tcl\\encoding\\cp950.enc',
   'l:\\python\\tcl\\tcl8.6\\encoding\\cp950.enc',
   'DATA'),
  ('tcl\\tzdata\\Africa\\Gaborone',
   'l:\\python\\tcl\\tcl8.6\\tzdata\\Africa\\Gaborone',
   'DATA'),
  ('tcl\\tzdata\\Europe\\Moscow',
   'l:\\python\\tcl\\tcl8.6\\tzdata\\Europe\\Moscow',
   'DATA'),
  ('tcl\\tzdata\\Etc\\Greenwich',
   'l:\\python\\tcl\\tcl8.6\\tzdata\\Etc\\Greenwich',
   'DATA'),
  ('tcl\\tzdata\\Asia\\Brunei',
   'l:\\python\\tcl\\tcl8.6\\tzdata\\Asia\\Brunei',
   'DATA'),
  ('tcl\\msgs\\sh.msg', 'l:\\python\\tcl\\tcl8.6\\msgs\\sh.msg', 'DATA'),
  ('tcl\\encoding\\cp852.enc',
   'l:\\python\\tcl\\tcl8.6\\encoding\\cp852.enc',
   'DATA'),
  ('tcl\\tzdata\\Europe\\Prague',
   'l:\\python\\tcl\\tcl8.6\\tzdata\\Europe\\Prague',
   'DATA'),
  ('tcl\\tzdata\\Mexico\\BajaNorte',
   'l:\\python\\tcl\\tcl8.6\\tzdata\\Mexico\\BajaNorte',
   'DATA'),
  ('tcl\\tzdata\\Europe\\Skopje',
   'l:\\python\\tcl\\tcl8.6\\tzdata\\Europe\\Skopje',
   'DATA'),
  ('tcl\\tzdata\\GMT-0', 'l:\\python\\tcl\\tcl8.6\\tzdata\\GMT-0', 'DATA'),
  ('tcl\\tzdata\\Asia\\Katmandu',
   'l:\\python\\tcl\\tcl8.6\\tzdata\\Asia\\Katmandu',
   'DATA'),
  ('tcl\\tzdata\\America\\Jujuy',
   'l:\\python\\tcl\\tcl8.6\\tzdata\\America\\Jujuy',
   'DATA'),
  ('tcl\\tzdata\\America\\Santa_Isabel',
   'l:\\python\\tcl\\tcl8.6\\tzdata\\America\\Santa_Isabel',
   'DATA'),
  ('tk\\focus.tcl', 'l:\\python\\tcl\\tk8.6\\focus.tcl', 'DATA'),
  ('tk\\ttk\\classicTheme.tcl',
   'l:\\python\\tcl\\tk8.6\\ttk\\classicTheme.tcl',
   'DATA'),
  ('tcl\\tzdata\\Etc\\GMT',
   'l:\\python\\tcl\\tcl8.6\\tzdata\\Etc\\GMT',
   'DATA'),
  ('tcl\\encoding\\cp775.enc',
   'l:\\python\\tcl\\tcl8.6\\encoding\\cp775.enc',
   'DATA'),
  ('tcl\\msgs\\ar_lb.msg', 'l:\\python\\tcl\\tcl8.6\\msgs\\ar_lb.msg', 'DATA'),
  ('tcl\\tzdata\\America\\Argentina\\San_Luis',
   'l:\\python\\tcl\\tcl8.6\\tzdata\\America\\Argentina\\San_Luis',
   'DATA'),
  ('tcl\\tzdata\\Asia\\Kabul',
   'l:\\python\\tcl\\tcl8.6\\tzdata\\Asia\\Kabul',
   'DATA'),
  ('tcl\\tzdata\\Europe\\Kiev',
   'l:\\python\\tcl\\tcl8.6\\tzdata\\Europe\\Kiev',
   'DATA'),
  ('tcl\\tzdata\\Europe\\Berlin',
   'l:\\python\\tcl\\tcl8.6\\tzdata\\Europe\\Berlin',
   'DATA'),
  ('tcl\\tzdata\\Africa\\Khartoum',
   'l:\\python\\tcl\\tcl8.6\\tzdata\\Africa\\Khartoum',
   'DATA'),
  ('tcl\\tzdata\\NZ-CHAT', 'l:\\python\\tcl\\tcl8.6\\tzdata\\NZ-CHAT', 'DATA'),
  ('tcl\\tzdata\\Europe\\Vilnius',
   'l:\\python\\tcl\\tcl8.6\\tzdata\\Europe\\Vilnius',
   'DATA'),
  ('tcl\\tzdata\\Asia\\Ashgabat',
   'l:\\python\\tcl\\tcl8.6\\tzdata\\Asia\\Ashgabat',
   'DATA'),
  ('tcl\\tzdata\\Africa\\Ouagadougou',
   'l:\\python\\tcl\\tcl8.6\\tzdata\\Africa\\Ouagadougou',
   'DATA'),
  ('tcl\\tzdata\\Asia\\Bishkek',
   'l:\\python\\tcl\\tcl8.6\\tzdata\\Asia\\Bishkek',
   'DATA'),
  ('tcl\\encoding\\cp1258.enc',
   'l:\\python\\tcl\\tcl8.6\\encoding\\cp1258.enc',
   'DATA'),
  ('tcl\\tzdata\\Atlantic\\Madeira',
   'l:\\python\\tcl\\tcl8.6\\tzdata\\Atlantic\\Madeira',
   'DATA'),
  ('tcl\\tzdata\\America\\Santarem',
   'l:\\python\\tcl\\tcl8.6\\tzdata\\America\\Santarem',
   'DATA'),
  ('tcl\\tzdata\\US\\Eastern',
   'l:\\python\\tcl\\tcl8.6\\tzdata\\US\\Eastern',
   'DATA'),
  ('tcl\\msgs\\ar_sy.msg', 'l:\\python\\tcl\\tcl8.6\\msgs\\ar_sy.msg', 'DATA'),
  ('tcl\\tzdata\\America\\Rio_Branco',
   'l:\\python\\tcl\\tcl8.6\\tzdata\\America\\Rio_Branco',
   'DATA'),
  ('tcl\\msgs\\be.msg', 'l:\\python\\tcl\\tcl8.6\\msgs\\be.msg', 'DATA'),
  ('tcl\\tzdata\\America\\St_Kitts',
   'l:\\python\\tcl\\tcl8.6\\tzdata\\America\\St_Kitts',
   'DATA'),
  ('tcl\\tzdata\\Etc\\Zulu',
   'l:\\python\\tcl\\tcl8.6\\tzdata\\Etc\\Zulu',
   'DATA'),
  ('tcl\\tzdata\\America\\Araguaina',
   'l:\\python\\tcl\\tcl8.6\\tzdata\\America\\Araguaina',
   'DATA'),
  ('tcl\\tzdata\\America\\Argentina\\Buenos_Aires',
   'l:\\python\\tcl\\tcl8.6\\tzdata\\America\\Argentina\\Buenos_Aires',
   'DATA'),
  ('tcl\\tzdata\\Africa\\Dakar',
   'l:\\python\\tcl\\tcl8.6\\tzdata\\Africa\\Dakar',
   'DATA'),
  ('tcl\\tzdata\\Europe\\London',
   'l:\\python\\tcl\\tcl8.6\\tzdata\\Europe\\London',
   'DATA'),
  ('tcl\\encoding\\macDingbats.enc',
   'l:\\python\\tcl\\tcl8.6\\encoding\\macDingbats.enc',
   'DATA'),
  ('tcl\\tzdata\\America\\Blanc-Sablon',
   'l:\\python\\tcl\\tcl8.6\\tzdata\\America\\Blanc-Sablon',
   'DATA'),
  ('tcl\\msgs\\es_ec.msg', 'l:\\python\\tcl\\tcl8.6\\msgs\\es_ec.msg', 'DATA'),
  ('tcl\\encoding\\macIceland.enc',
   'l:\\python\\tcl\\tcl8.6\\encoding\\macIceland.enc',
   'DATA'),
  ('tk\\listbox.tcl', 'l:\\python\\tcl\\tk8.6\\listbox.tcl', 'DATA'),
  ('tcl\\tzdata\\Atlantic\\Faeroe',
   'l:\\python\\tcl\\tcl8.6\\tzdata\\Atlantic\\Faeroe',
   'DATA'),
  ('tk\\choosedir.tcl', 'l:\\python\\tcl\\tk8.6\\choosedir.tcl', 'DATA'),
  ('tcl\\tzdata\\America\\Asuncion',
   'l:\\python\\tcl\\tcl8.6\\tzdata\\America\\Asuncion',
   'DATA'),
  ('tcl\\tzdata\\America\\Toronto',
   'l:\\python\\tcl\\tcl8.6\\tzdata\\America\\Toronto',
   'DATA'),
  ('tcl\\tzdata\\Africa\\Niamey',
   'l:\\python\\tcl\\tcl8.6\\tzdata\\Africa\\Niamey',
   'DATA'),
  ('tk\\scale.tcl', 'l:\\python\\tcl\\tk8.6\\scale.tcl', 'DATA'),
  ('tcl\\tzdata\\Antarctica\\McMurdo',
   'l:\\python\\tcl\\tcl8.6\\tzdata\\Antarctica\\McMurdo',
   'DATA'),
  ('tcl\\encoding\\ksc5601.enc',
   'l:\\python\\tcl\\tcl8.6\\encoding\\ksc5601.enc',
   'DATA'),
  ('tcl\\tzdata\\Europe\\Sofia',
   'l:\\python\\tcl\\tcl8.6\\tzdata\\Europe\\Sofia',
   'DATA'),
  ('tk\\images\\logoLarge.gif',
   'l:\\python\\tcl\\tk8.6\\images\\logoLarge.gif',
   'DATA'),
  ('tcl\\tzdata\\America\\Argentina\\La_Rioja',
   'l:\\python\\tcl\\tcl8.6\\tzdata\\America\\Argentina\\La_Rioja',
   'DATA'),
  ('tcl\\tzdata\\Mexico\\BajaSur',
   'l:\\python\\tcl\\tcl8.6\\tzdata\\Mexico\\BajaSur',
   'DATA'),
  ('tcl\\tzdata\\Australia\\Darwin',
   'l:\\python\\tcl\\tcl8.6\\tzdata\\Australia\\Darwin',
   'DATA'),
  ('tcl\\tzdata\\Europe\\Andorra',
   'l:\\python\\tcl\\tcl8.6\\tzdata\\Europe\\Andorra',
   'DATA'),
  ('tcl\\tzdata\\America\\Pangnirtung',
   'l:\\python\\tcl\\tcl8.6\\tzdata\\America\\Pangnirtung',
   'DATA'),
  ('tcl\\tzdata\\SystemV\\AST4',
   'l:\\python\\tcl\\tcl8.6\\tzdata\\SystemV\\AST4',
   'DATA'),
  ('tcl\\tzdata\\Indian\\Cocos',
   'l:\\python\\tcl\\tcl8.6\\tzdata\\Indian\\Cocos',
   'DATA'),
  ('tcl\\tzdata\\Asia\\Dubai',
   'l:\\python\\tcl\\tcl8.6\\tzdata\\Asia\\Dubai',
   'DATA'),
  ('tcl\\tzdata\\America\\Swift_Current',
   'l:\\python\\tcl\\tcl8.6\\tzdata\\America\\Swift_Current',
   'DATA'),
  ('tcl\\msgs\\nl_be.msg', 'l:\\python\\tcl\\tcl8.6\\msgs\\nl_be.msg', 'DATA'),
  ('tcl\\msgs\\fa_ir.msg', 'l:\\python\\tcl\\tcl8.6\\msgs\\fa_ir.msg', 'DATA'),
  ('tcl\\tzdata\\America\\Port_of_Spain',
   'l:\\python\\tcl\\tcl8.6\\tzdata\\America\\Port_of_Spain',
   'DATA'),
  ('tcl\\tzdata\\Africa\\Addis_Ababa',
   'l:\\python\\tcl\\tcl8.6\\tzdata\\Africa\\Addis_Ababa',
   'DATA'),
  ('tcl\\encoding\\cp866.enc',
   'l:\\python\\tcl\\tcl8.6\\encoding\\cp866.enc',
   'DATA'),
  ('tcl\\tzdata\\US\\Samoa',
   'l:\\python\\tcl\\tcl8.6\\tzdata\\US\\Samoa',
   'DATA'),
  ('tcl\\tzdata\\America\\Ensenada',
   'l:\\python\\tcl\\tcl8.6\\tzdata\\America\\Ensenada',
   'DATA'),
  ('tcl\\tzdata\\Pacific\\Saipan',
   'l:\\python\\tcl\\tcl8.6\\tzdata\\Pacific\\Saipan',
   'DATA'),
  ('tcl\\tzdata\\Hongkong',
   'l:\\python\\tcl\\tcl8.6\\tzdata\\Hongkong',
   'DATA'),
  ('tcl\\encoding\\koi8-r.enc',
   'l:\\python\\tcl\\tcl8.6\\encoding\\koi8-r.enc',
   'DATA'),
  ('tcl\\msgs\\gv.msg', 'l:\\python\\tcl\\tcl8.6\\msgs\\gv.msg', 'DATA'),
  ('tcl\\tzdata\\America\\Nipigon',
   'l:\\python\\tcl\\tcl8.6\\tzdata\\America\\Nipigon',
   'DATA'),
  ('tcl\\tzdata\\Pacific\\Chuuk',
   'l:\\python\\tcl\\tcl8.6\\tzdata\\Pacific\\Chuuk',
   'DATA'),
  ('tcl\\tzdata\\America\\Metlakatla',
   'l:\\python\\tcl\\tcl8.6\\tzdata\\America\\Metlakatla',
   'DATA'),
  ('Include\\pyconfig.h', 'l:\\python\\Include\\pyconfig.h', 'DATA'),
  ('tcl\\msgs\\ja.msg', 'l:\\python\\tcl\\tcl8.6\\msgs\\ja.msg', 'DATA'),
  ('tcl\\tzdata\\Africa\\Bamako',
   'l:\\python\\tcl\\tcl8.6\\tzdata\\Africa\\Bamako',
   'DATA'),
  ('tcl\\tzdata\\Antarctica\\Casey',
   'l:\\python\\tcl\\tcl8.6\\tzdata\\Antarctica\\Casey',
   'DATA'),
  ('tcl\\tzdata\\Africa\\Brazzaville',
   'l:\\python\\tcl\\tcl8.6\\tzdata\\Africa\\Brazzaville',
   'DATA'),
  ('tcl\\tzdata\\Pacific\\Kosrae',
   'l:\\python\\tcl\\tcl8.6\\tzdata\\Pacific\\Kosrae',
   'DATA'),
  ('tcl\\tzdata\\Australia\\Broken_Hill',
   'l:\\python\\tcl\\tcl8.6\\tzdata\\Australia\\Broken_Hill',
   'DATA'),
  ('tcl\\tzdata\\America\\Indiana\\Knox',
   'l:\\python\\tcl\\tcl8.6\\tzdata\\America\\Indiana\\Knox',
   'DATA'),
  ('tcl\\encoding\\cp1255.enc',
   'l:\\python\\tcl\\tcl8.6\\encoding\\cp1255.enc',
   'DATA'),
  ('tcl\\msgs\\sw.msg', 'l:\\python\\tcl\\tcl8.6\\msgs\\sw.msg', 'DATA'),
  ('tcl\\tzdata\\America\\Indiana\\Indianapolis',
   'l:\\python\\tcl\\tcl8.6\\tzdata\\America\\Indiana\\Indianapolis',
   'DATA'),
  ('tcl\\msgs\\kw.msg', 'l:\\python\\tcl\\tcl8.6\\msgs\\kw.msg', 'DATA'),
  ('tcl\\tzdata\\SystemV\\EST5EDT',
   'l:\\python\\tcl\\tcl8.6\\tzdata\\SystemV\\EST5EDT',
   'DATA'),
  ('tk\\button.tcl', 'l:\\python\\tcl\\tk8.6\\button.tcl', 'DATA'),
  ('tcl\\tzdata\\Iran', 'l:\\python\\tcl\\tcl8.6\\tzdata\\Iran', 'DATA'),
  ('tcl\\msgs\\hi.msg', 'l:\\python\\tcl\\tcl8.6\\msgs\\hi.msg', 'DATA'),
  ('tcl\\tzdata\\Pacific\\Efate',
   'l:\\python\\tcl\\tcl8.6\\tzdata\\Pacific\\Efate',
   'DATA'),
  ('tk\\tearoff.tcl', 'l:\\python\\tcl\\tk8.6\\tearoff.tcl', 'DATA'),
  ('tcl\\msgs\\hu.msg', 'l:\\python\\tcl\\tcl8.6\\msgs\\hu.msg', 'DATA'),
  ('tcl\\http1.0\\pkgIndex.tcl',
   'l:\\python\\tcl\\tcl8.6\\http1.0\\pkgIndex.tcl',
   'DATA'),
  ('tcl\\msgs\\sv.msg', 'l:\\python\\tcl\\tcl8.6\\msgs\\sv.msg', 'DATA'),
  ('tcl\\tzdata\\Australia\\Currie',
   'l:\\python\\tcl\\tcl8.6\\tzdata\\Australia\\Currie',
   'DATA'),
  ('tcl\\tzdata\\Africa\\Conakry',
   'l:\\python\\tcl\\tcl8.6\\tzdata\\Africa\\Conakry',
   'DATA'),
  ('tcl\\tzdata\\Eire', 'l:\\python\\tcl\\tcl8.6\\tzdata\\Eire', 'DATA'),
  ('tcl\\msgs\\te.msg', 'l:\\python\\tcl\\tcl8.6\\msgs\\te.msg', 'DATA'),
  ('tcl\\encoding\\macCentEuro.enc',
   'l:\\python\\tcl\\tcl8.6\\encoding\\macCentEuro.enc',
   'DATA'),
  ('tcl\\tzdata\\Pacific\\Galapagos',
   'l:\\python\\tcl\\tcl8.6\\tzdata\\Pacific\\Galapagos',
   'DATA'),
  ('tk\\ttk\\notebook.tcl',
   'l:\\python\\tcl\\tk8.6\\ttk\\notebook.tcl',
   'DATA'),
  ('tcl\\tzdata\\Asia\\Qyzylorda',
   'l:\\python\\tcl\\tcl8.6\\tzdata\\Asia\\Qyzylorda',
   'DATA'),
  ('tcl\\tzdata\\Australia\\Brisbane',
   'l:\\python\\tcl\\tcl8.6\\tzdata\\Australia\\Brisbane',
   'DATA'),
  ('tcl\\tzdata\\Europe\\Kaliningrad',
   'l:\\python\\tcl\\tcl8.6\\tzdata\\Europe\\Kaliningrad',
   'DATA'),
  ('tcl\\tzdata\\America\\Paramaribo',
   'l:\\python\\tcl\\tcl8.6\\tzdata\\America\\Paramaribo',
   'DATA'),
  ('tcl\\tzdata\\Kwajalein',
   'l:\\python\\tcl\\tcl8.6\\tzdata\\Kwajalein',
   'DATA'),
  ('tcl\\tzdata\\Asia\\Calcutta',
   'l:\\python\\tcl\\tcl8.6\\tzdata\\Asia\\Calcutta',
   'DATA'),
  ('tcl\\tzdata\\Africa\\Nouakchott',
   'l:\\python\\tcl\\tcl8.6\\tzdata\\Africa\\Nouakchott',
   'DATA'),
  ('tcl\\tzdata\\America\\Curacao',
   'l:\\python\\tcl\\tcl8.6\\tzdata\\America\\Curacao',
   'DATA'),
  ('tcl\\tzdata\\Canada\\Yukon',
   'l:\\python\\tcl\\tcl8.6\\tzdata\\Canada\\Yukon',
   'DATA'),
  ('tcl\\tzdata\\Etc\\GMT-10',
   'l:\\python\\tcl\\tcl8.6\\tzdata\\Etc\\GMT-10',
   'DATA'),
  ('tcl\\tzdata\\SystemV\\EST5',
   'l:\\python\\tcl\\tcl8.6\\tzdata\\SystemV\\EST5',
   'DATA'),
  ('tcl\\tzdata\\Mexico\\General',
   'l:\\python\\tcl\\tcl8.6\\tzdata\\Mexico\\General',
   'DATA'),
  ('tcl\\msgs\\cs.msg', 'l:\\python\\tcl\\tcl8.6\\msgs\\cs.msg', 'DATA'),
  ('tcl\\tzdata\\Asia\\Ulaanbaatar',
   'l:\\python\\tcl\\tcl8.6\\tzdata\\Asia\\Ulaanbaatar',
   'DATA'),
  ('tcl\\tzdata\\America\\Phoenix',
   'l:\\python\\tcl\\tcl8.6\\tzdata\\America\\Phoenix',
   'DATA'),
  ('tcl\\msgs\\kw_gb.msg', 'l:\\python\\tcl\\tcl8.6\\msgs\\kw_gb.msg', 'DATA'),
  ('tcl\\tzdata\\America\\Porto_Velho',
   'l:\\python\\tcl\\tcl8.6\\tzdata\\America\\Porto_Velho',
   'DATA'),
  ('tcl\\tzdata\\Japan', 'l:\\python\\tcl\\tcl8.6\\tzdata\\Japan', 'DATA'),
  ('tcl\\msgs\\el.msg', 'l:\\python\\tcl\\tcl8.6\\msgs\\el.msg', 'DATA'),
  ('tcl8\\8.5\\tcltest-2.5.0.tm',
   'l:\\python\\tcl\\tcl8.6\\..\\tcl8\\8.5\\tcltest-2.5.0.tm',
   'DATA'),
  ('tcl\\tzdata\\America\\Moncton',
   'l:\\python\\tcl\\tcl8.6\\tzdata\\America\\Moncton',
   'DATA'),
  ('tk\\ttk\\combobox.tcl',
   'l:\\python\\tcl\\tk8.6\\ttk\\combobox.tcl',
   'DATA'),
  ('tcl\\msgs\\gl.msg', 'l:\\python\\tcl\\tcl8.6\\msgs\\gl.msg', 'DATA'),
  ('tcl\\msgs\\fr.msg', 'l:\\python\\tcl\\tcl8.6\\msgs\\fr.msg', 'DATA'),
  ('tcl\\tzdata\\Pacific\\Niue',
   'l:\\python\\tcl\\tcl8.6\\tzdata\\Pacific\\Niue',
   'DATA'),
  ('tcl\\tzdata\\Europe\\Helsinki',
   'l:\\python\\tcl\\tcl8.6\\tzdata\\Europe\\Helsinki',
   'DATA'),
  ('tcl\\tzdata\\Europe\\Volgograd',
   'l:\\python\\tcl\\tcl8.6\\tzdata\\Europe\\Volgograd',
   'DATA'),
  ('tcl\\tzdata\\Etc\\GMT+8',
   'l:\\python\\tcl\\tcl8.6\\tzdata\\Etc\\GMT+8',
   'DATA'),
  ('tcl\\msgs\\fr_be.msg', 'l:\\python\\tcl\\tcl8.6\\msgs\\fr_be.msg', 'DATA'),
  ('tcl\\tzdata\\Asia\\Muscat',
   'l:\\python\\tcl\\tcl8.6\\tzdata\\Asia\\Muscat',
   'DATA'),
  ('tcl\\tzdata\\Asia\\Barnaul',
   'l:\\python\\tcl\\tcl8.6\\tzdata\\Asia\\Barnaul',
   'DATA'),
  ('tcl\\tzdata\\Etc\\GMT-9',
   'l:\\python\\tcl\\tcl8.6\\tzdata\\Etc\\GMT-9',
   'DATA'),
  ('tcl\\tzdata\\America\\Cuiaba',
   'l:\\python\\tcl\\tcl8.6\\tzdata\\America\\Cuiaba',
   'DATA'),
  ('tk\\msgs\\el.msg', 'l:\\python\\tcl\\tk8.6\\msgs\\el.msg', 'DATA'),
  ('tcl\\tzdata\\America\\Panama',
   'l:\\python\\tcl\\tcl8.6\\tzdata\\America\\Panama',
   'DATA'),
  ('tcl\\word.tcl', 'l:\\python\\tcl\\tcl8.6\\word.tcl', 'DATA'),
  ('tcl\\tzdata\\Europe\\Vatican',
   'l:\\python\\tcl\\tcl8.6\\tzdata\\Europe\\Vatican',
   'DATA'),
  ('tcl\\tzdata\\America\\North_Dakota\\Beulah',
   'l:\\python\\tcl\\tcl8.6\\tzdata\\America\\North_Dakota\\Beulah',
   'DATA'),
  ('tcl\\tzdata\\Asia\\Khandyga',
   'l:\\python\\tcl\\tcl8.6\\tzdata\\Asia\\Khandyga',
   'DATA'),
  ('tcl\\msgs\\ar_jo.msg', 'l:\\python\\tcl\\tcl8.6\\msgs\\ar_jo.msg', 'DATA'),
  ('tcl\\tzdata\\America\\Virgin',
   'l:\\python\\tcl\\tcl8.6\\tzdata\\America\\Virgin',
   'DATA'),
  ('tcl\\tzdata\\Asia\\Sakhalin',
   'l:\\python\\tcl\\tcl8.6\\tzdata\\Asia\\Sakhalin',
   'DATA'),
  ('tcl\\tzdata\\America\\Indiana\\Winamac',
   'l:\\python\\tcl\\tcl8.6\\tzdata\\America\\Indiana\\Winamac',
   'DATA'),
  ('tcl\\tzdata\\US\\Aleutian',
   'l:\\python\\tcl\\tcl8.6\\tzdata\\US\\Aleutian',
   'DATA'),
  ('tcl\\tzdata\\Pacific\\Johnston',
   'l:\\python\\tcl\\tcl8.6\\tzdata\\Pacific\\Johnston',
   'DATA'),
  ('tcl\\tzdata\\Poland', 'l:\\python\\tcl\\tcl8.6\\tzdata\\Poland', 'DATA'),
  ('tcl\\tzdata\\Etc\\GMT-3',
   'l:\\python\\tcl\\tcl8.6\\tzdata\\Etc\\GMT-3',
   'DATA'),
  ('tcl\\tzdata\\Asia\\Famagusta',
   'l:\\python\\tcl\\tcl8.6\\tzdata\\Asia\\Famagusta',
   'DATA'),
  ('tcl\\tzdata\\Asia\\Pontianak',
   'l:\\python\\tcl\\tcl8.6\\tzdata\\Asia\\Pontianak',
   'DATA'),
  ('tcl\\tzdata\\America\\Argentina\\ComodRivadavia',
   'l:\\python\\tcl\\tcl8.6\\tzdata\\America\\Argentina\\ComodRivadavia',
   'DATA'),
  ('tcl\\msgs\\zh_sg.msg', 'l:\\python\\tcl\\tcl8.6\\msgs\\zh_sg.msg', 'DATA'),
  ('tcl\\tzdata\\Atlantic\\Cape_Verde',
   'l:\\python\\tcl\\tcl8.6\\tzdata\\Atlantic\\Cape_Verde',
   'DATA'),
  ('tcl\\tzdata\\Brazil\\DeNoronha',
   'l:\\python\\tcl\\tcl8.6\\tzdata\\Brazil\\DeNoronha',
   'DATA'),
  ('tcl\\tzdata\\Europe\\Saratov',
   'l:\\python\\tcl\\tcl8.6\\tzdata\\Europe\\Saratov',
   'DATA'),
  ('tcl\\tzdata\\America\\Argentina\\Cordoba',
   'l:\\python\\tcl\\tcl8.6\\tzdata\\America\\Argentina\\Cordoba',
   'DATA'),
  ('tcl\\tzdata\\America\\Godthab',
   'l:\\python\\tcl\\tcl8.6\\tzdata\\America\\Godthab',
   'DATA'),
  ('tcl\\tzdata\\Africa\\Luanda',
   'l:\\python\\tcl\\tcl8.6\\tzdata\\Africa\\Luanda',
   'DATA'),
  ('tcl\\tzdata\\US\\Arizona',
   'l:\\python\\tcl\\tcl8.6\\tzdata\\US\\Arizona',
   'DATA'),
  ('tcl\\tzdata\\Asia\\Yerevan',
   'l:\\python\\tcl\\tcl8.6\\tzdata\\Asia\\Yerevan',
   'DATA'),
  ('tcl\\tzdata\\Etc\\GMT0',
   'l:\\python\\tcl\\tcl8.6\\tzdata\\Etc\\GMT0',
   'DATA'),
  ('tcl\\tzdata\\Asia\\Shanghai',
   'l:\\python\\tcl\\tcl8.6\\tzdata\\Asia\\Shanghai',
   'DATA'),
  ('tcl\\tzdata\\Africa\\Mogadishu',
   'l:\\python\\tcl\\tcl8.6\\tzdata\\Africa\\Mogadishu',
   'DATA'),
  ('tcl\\clock.tcl', 'l:\\python\\tcl\\tcl8.6\\clock.tcl', 'DATA'),
  ('tcl\\tzdata\\Africa\\Douala',
   'l:\\python\\tcl\\tcl8.6\\tzdata\\Africa\\Douala',
   'DATA'),
  ('tcl\\tzdata\\Europe\\Oslo',
   'l:\\python\\tcl\\tcl8.6\\tzdata\\Europe\\Oslo',
   'DATA'),
  ('tcl\\msgs\\ar.msg', 'l:\\python\\tcl\\tcl8.6\\msgs\\ar.msg', 'DATA'),
  ('tcl\\msgs\\nl.msg', 'l:\\python\\tcl\\tcl8.6\\msgs\\nl.msg', 'DATA'),
  ('tcl\\encoding\\iso8859-5.enc',
   'l:\\python\\tcl\\tcl8.6\\encoding\\iso8859-5.enc',
   'DATA'),
  ('tcl\\tzdata\\Europe\\Zagreb',
   'l:\\python\\tcl\\tcl8.6\\tzdata\\Europe\\Zagreb',
   'DATA'),
  ('tcl\\tzdata\\EST5EDT', 'l:\\python\\tcl\\tcl8.6\\tzdata\\EST5EDT', 'DATA'),
  ('tcl\\tzdata\\America\\Argentina\\Mendoza',
   'l:\\python\\tcl\\tcl8.6\\tzdata\\America\\Argentina\\Mendoza',
   'DATA'),
  ('tcl\\msgs\\es_ar.msg', 'l:\\python\\tcl\\tcl8.6\\msgs\\es_ar.msg', 'DATA'),
  ('tcl\\tzdata\\Europe\\Minsk',
   'l:\\python\\tcl\\tcl8.6\\tzdata\\Europe\\Minsk',
   'DATA'),
  ('tk\\msgs\\da.msg', 'l:\\python\\tcl\\tk8.6\\msgs\\da.msg', 'DATA'),
  ('tcl\\tzdata\\America\\Adak',
   'l:\\python\\tcl\\tcl8.6\\tzdata\\America\\Adak',
   'DATA'),
  ('tcl\\tzdata\\America\\Rosario',
   'l:\\python\\tcl\\tcl8.6\\tzdata\\America\\Rosario',
   'DATA'),
  ('tcl\\tzdata\\America\\Anguilla',
   'l:\\python\\tcl\\tcl8.6\\tzdata\\America\\Anguilla',
   'DATA'),
  ('tcl\\tzdata\\America\\Nassau',
   'l:\\python\\tcl\\tcl8.6\\tzdata\\America\\Nassau',
   'DATA'),
  ('tcl\\tzdata\\Asia\\Chongqing',
   'l:\\python\\tcl\\tcl8.6\\tzdata\\Asia\\Chongqing',
   'DATA'),
  ('tcl\\tzdata\\Australia\\Canberra',
   'l:\\python\\tcl\\tcl8.6\\tzdata\\Australia\\Canberra',
   'DATA'),
  ('tcl\\tzdata\\America\\Mexico_City',
   'l:\\python\\tcl\\tcl8.6\\tzdata\\America\\Mexico_City',
   'DATA'),
  ('tcl\\package.tcl', 'l:\\python\\tcl\\tcl8.6\\package.tcl', 'DATA'),
  ('tcl\\tzdata\\Europe\\Copenhagen',
   'l:\\python\\tcl\\tcl8.6\\tzdata\\Europe\\Copenhagen',
   'DATA'),
  ('tcl\\tzdata\\Australia\\NSW',
   'l:\\python\\tcl\\tcl8.6\\tzdata\\Australia\\NSW',
   'DATA'),
  ('tcl\\tzdata\\Australia\\Sydney',
   'l:\\python\\tcl\\tcl8.6\\tzdata\\Australia\\Sydney',
   'DATA'),
  ('tcl\\tzdata\\Africa\\Tripoli',
   'l:\\python\\tcl\\tcl8.6\\tzdata\\Africa\\Tripoli',
   'DATA'),
  ('tcl\\encoding\\cp1256.enc',
   'l:\\python\\tcl\\tcl8.6\\encoding\\cp1256.enc',
   'DATA'),
  ('tcl\\tzdata\\Asia\\Rangoon',
   'l:\\python\\tcl\\tcl8.6\\tzdata\\Asia\\Rangoon',
   'DATA'),
  ('tcl\\tzdata\\PST8PDT', 'l:\\python\\tcl\\tcl8.6\\tzdata\\PST8PDT', 'DATA'),
  ('tcl\\encoding\\macCroatian.enc',
   'l:\\python\\tcl\\tcl8.6\\encoding\\macCroatian.enc',
   'DATA'),
  ('tcl\\encoding\\macRoman.enc',
   'l:\\python\\tcl\\tcl8.6\\encoding\\macRoman.enc',
   'DATA'),
  ('tk\\images\\pwrdLogo150.gif',
   'l:\\python\\tcl\\tk8.6\\images\\pwrdLogo150.gif',
   'DATA'),
  ('tcl\\tzdata\\Australia\\Melbourne',
   'l:\\python\\tcl\\tcl8.6\\tzdata\\Australia\\Melbourne',
   'DATA'),
  ('tcl\\tzdata\\America\\Lima',
   'l:\\python\\tcl\\tcl8.6\\tzdata\\America\\Lima',
   'DATA'),
  ('tcl\\tzdata\\Asia\\Dushanbe',
   'l:\\python\\tcl\\tcl8.6\\tzdata\\Asia\\Dushanbe',
   'DATA'),
  ('tcl\\msgs\\ru_ua.msg', 'l:\\python\\tcl\\tcl8.6\\msgs\\ru_ua.msg', 'DATA'),
  ('tcl\\msgs\\ru.msg', 'l:\\python\\tcl\\tcl8.6\\msgs\\ru.msg', 'DATA'),
  ('tcl\\tzdata\\Asia\\Ujung_Pandang',
   'l:\\python\\tcl\\tcl8.6\\tzdata\\Asia\\Ujung_Pandang',
   'DATA'),
  ('tcl\\tzdata\\America\\Cayman',
   'l:\\python\\tcl\\tcl8.6\\tzdata\\America\\Cayman',
   'DATA'),
  ('tcl\\tzdata\\Turkey', 'l:\\python\\tcl\\tcl8.6\\tzdata\\Turkey', 'DATA'),
  ('tcl\\tzdata\\America\\Mazatlan',
   'l:\\python\\tcl\\tcl8.6\\tzdata\\America\\Mazatlan',
   'DATA'),
  ('tcl\\tzdata\\Antarctica\\Vostok',
   'l:\\python\\tcl\\tcl8.6\\tzdata\\Antarctica\\Vostok',
   'DATA'),
  ('tcl\\tzdata\\Asia\\Riyadh',
   'l:\\python\\tcl\\tcl8.6\\tzdata\\Asia\\Riyadh',
   'DATA'),
  ('tcl\\tzdata\\America\\Costa_Rica',
   'l:\\python\\tcl\\tcl8.6\\tzdata\\America\\Costa_Rica',
   'DATA'),
  ('tcl\\tzdata\\CET', 'l:\\python\\tcl\\tcl8.6\\tzdata\\CET', 'DATA'),
  ('tcl\\tzdata\\Portugal',
   'l:\\python\\tcl\\tcl8.6\\tzdata\\Portugal',
   'DATA'),
  ('tcl\\tzdata\\America\\Havana',
   'l:\\python\\tcl\\tcl8.6\\tzdata\\America\\Havana',
   'DATA'),
  ('tcl\\tzdata\\Europe\\Samara',
   'l:\\python\\tcl\\tcl8.6\\tzdata\\Europe\\Samara',
   'DATA'),
  ('tcl\\tzdata\\Indian\\Mauritius',
   'l:\\python\\tcl\\tcl8.6\\tzdata\\Indian\\Mauritius',
   'DATA'),
  ('tcl\\tzdata\\Asia\\Singapore',
   'l:\\python\\tcl\\tcl8.6\\tzdata\\Asia\\Singapore',
   'DATA'),
  ('tcl\\tzdata\\Europe\\Tiraspol',
   'l:\\python\\tcl\\tcl8.6\\tzdata\\Europe\\Tiraspol',
   'DATA'),
  ('tcl\\tzdata\\Asia\\Kuching',
   'l:\\python\\tcl\\tcl8.6\\tzdata\\Asia\\Kuching',
   'DATA'),
  ('tcl\\msgs\\pl.msg', 'l:\\python\\tcl\\tcl8.6\\msgs\\pl.msg', 'DATA'),
  ('tcl\\encoding\\cp860.enc',
   'l:\\python\\tcl\\tcl8.6\\encoding\\cp860.enc',
   'DATA'),
  ('tcl\\encoding\\iso8859-2.enc',
   'l:\\python\\tcl\\tcl8.6\\encoding\\iso8859-2.enc',
   'DATA'),
  ('tcl\\tzdata\\Africa\\Freetown',
   'l:\\python\\tcl\\tcl8.6\\tzdata\\Africa\\Freetown',
   'DATA'),
  ('tcl\\encoding\\iso8859-14.enc',
   'l:\\python\\tcl\\tcl8.6\\encoding\\iso8859-14.enc',
   'DATA'),
  ('tcl\\tzdata\\Europe\\Chisinau',
   'l:\\python\\tcl\\tcl8.6\\tzdata\\Europe\\Chisinau',
   'DATA'),
  ('tcl\\tzdata\\Indian\\Chagos',
   'l:\\python\\tcl\\tcl8.6\\tzdata\\Indian\\Chagos',
   'DATA'),
  ('tk\\palette.tcl', 'l:\\python\\tcl\\tk8.6\\palette.tcl', 'DATA'),
  ('tcl\\msgs\\ko.msg', 'l:\\python\\tcl\\tcl8.6\\msgs\\ko.msg', 'DATA'),
  ('tk\\ttk\\scale.tcl', 'l:\\python\\tcl\\tk8.6\\ttk\\scale.tcl', 'DATA'),
  ('tcl\\tzdata\\Etc\\Universal',
   'l:\\python\\tcl\\tcl8.6\\tzdata\\Etc\\Universal',
   'DATA'),
  ('tcl\\tzdata\\Asia\\Macao',
   'l:\\python\\tcl\\tcl8.6\\tzdata\\Asia\\Macao',
   'DATA'),
  ('tcl\\tzdata\\Asia\\Kashgar',
   'l:\\python\\tcl\\tcl8.6\\tzdata\\Asia\\Kashgar',
   'DATA'),
  ('tcl\\tzdata\\America\\Guayaquil',
   'l:\\python\\tcl\\tcl8.6\\tzdata\\America\\Guayaquil',
   'DATA'),
  ('tcl\\tzdata\\Pacific\\Midway',
   'l:\\python\\tcl\\tcl8.6\\tzdata\\Pacific\\Midway',
   'DATA'),
  ('tcl\\tzdata\\Pacific\\Guadalcanal',
   'l:\\python\\tcl\\tcl8.6\\tzdata\\Pacific\\Guadalcanal',
   'DATA'),
  ('tcl\\tzdata\\Europe\\Isle_of_Man',
   'l:\\python\\tcl\\tcl8.6\\tzdata\\Europe\\Isle_of_Man',
   'DATA'),
  ('tk\\menu.tcl', 'l:\\python\\tcl\\tk8.6\\menu.tcl', 'DATA'),
  ('tcl\\tzdata\\Greenwich',
   'l:\\python\\tcl\\tcl8.6\\tzdata\\Greenwich',
   'DATA'),
  ('tcl\\tzdata\\Universal',
   'l:\\python\\tcl\\tcl8.6\\tzdata\\Universal',
   'DATA'),
  ('tk\\images\\README', 'l:\\python\\tcl\\tk8.6\\images\\README', 'DATA'),
  ('tcl\\tzdata\\Pacific\\Guam',
   'l:\\python\\tcl\\tcl8.6\\tzdata\\Pacific\\Guam',
   'DATA'),
  ('tcl\\tzdata\\Pacific\\Nauru',
   'l:\\python\\tcl\\tcl8.6\\tzdata\\Pacific\\Nauru',
   'DATA'),
  ('tcl\\tzdata\\Europe\\Guernsey',
   'l:\\python\\tcl\\tcl8.6\\tzdata\\Europe\\Guernsey',
   'DATA'),
  ('tcl\\tzdata\\Europe\\Mariehamn',
   'l:\\python\\tcl\\tcl8.6\\tzdata\\Europe\\Mariehamn',
   'DATA'),
  ('tcl\\tzdata\\SystemV\\AST4ADT',
   'l:\\python\\tcl\\tcl8.6\\tzdata\\SystemV\\AST4ADT',
   'DATA'),
  ('tcl\\msgs\\uk.msg', 'l:\\python\\tcl\\tcl8.6\\msgs\\uk.msg', 'DATA'),
  ('tcl\\tzdata\\Europe\\Astrakhan',
   'l:\\python\\tcl\\tcl8.6\\tzdata\\Europe\\Astrakhan',
   'DATA'),
  ('tcl\\tzdata\\Asia\\Kuwait',
   'l:\\python\\tcl\\tcl8.6\\tzdata\\Asia\\Kuwait',
   'DATA'),
  ('tcl\\tzdata\\America\\Marigot',
   'l:\\python\\tcl\\tcl8.6\\tzdata\\America\\Marigot',
   'DATA'),
  ('tcl\\encoding\\euc-cn.enc',
   'l:\\python\\tcl\\tcl8.6\\encoding\\euc-cn.enc',
   'DATA'),
  ('tcl\\tzdata\\Australia\\LHI',
   'l:\\python\\tcl\\tcl8.6\\tzdata\\Australia\\LHI',
   'DATA'),
  ('tcl\\tzdata\\Etc\\GMT-0',
   'l:\\python\\tcl\\tcl8.6\\tzdata\\Etc\\GMT-0',
   'DATA'),
  ('tk\\ttk\\sizegrip.tcl',
   'l:\\python\\tcl\\tk8.6\\ttk\\sizegrip.tcl',
   'DATA'),
  ('tcl\\tzdata\\America\\Belem',
   'l:\\python\\tcl\\tcl8.6\\tzdata\\America\\Belem',
   'DATA'),
  ('tcl\\encoding\\cp737.enc',
   'l:\\python\\tcl\\tcl8.6\\encoding\\cp737.enc',
   'DATA'),
  ('tcl\\tzdata\\Etc\\GMT+6',
   'l:\\python\\tcl\\tcl8.6\\tzdata\\Etc\\GMT+6',
   'DATA'),
  ('tcl\\tzdata\\Etc\\GMT-2',
   'l:\\python\\tcl\\tcl8.6\\tzdata\\Etc\\GMT-2',
   'DATA'),
  ('tk\\images\\pwrdLogo75.gif',
   'l:\\python\\tcl\\tk8.6\\images\\pwrdLogo75.gif',
   'DATA'),
  ('tcl\\tzdata\\Pacific\\Auckland',
   'l:\\python\\tcl\\tcl8.6\\tzdata\\Pacific\\Auckland',
   'DATA'),
  ('tcl\\tzdata\\Etc\\GMT+3',
   'l:\\python\\tcl\\tcl8.6\\tzdata\\Etc\\GMT+3',
   'DATA'),
  ('tcl\\tzdata\\Atlantic\\St_Helena',
   'l:\\python\\tcl\\tcl8.6\\tzdata\\Atlantic\\St_Helena',
   'DATA'),
  ('tk\\ttk\\progress.tcl',
   'l:\\python\\tcl\\tk8.6\\ttk\\progress.tcl',
   'DATA'),
  ('tcl\\tzdata\\Asia\\Ust-Nera',
   'l:\\python\\tcl\\tcl8.6\\tzdata\\Asia\\Ust-Nera',
   'DATA'),
  ('tcl\\tzdata\\Etc\\GMT-8',
   'l:\\python\\tcl\\tcl8.6\\tzdata\\Etc\\GMT-8',
   'DATA'),
  ('tcl\\tzdata\\Europe\\Athens',
   'l:\\python\\tcl\\tcl8.6\\tzdata\\Europe\\Athens',
   'DATA'),
  ('tcl\\tzdata\\Europe\\Vienna',
   'l:\\python\\tcl\\tcl8.6\\tzdata\\Europe\\Vienna',
   'DATA'),
  ('tcl\\tzdata\\Africa\\Libreville',
   'l:\\python\\tcl\\tcl8.6\\tzdata\\Africa\\Libreville',
   'DATA'),
  ('tcl\\encoding\\iso8859-15.enc',
   'l:\\python\\tcl\\tcl8.6\\encoding\\iso8859-15.enc',
   'DATA'),
  ('tcl\\encoding\\iso8859-8.enc',
   'l:\\python\\tcl\\tcl8.6\\encoding\\iso8859-8.enc',
   'DATA'),
  ('tcl\\tzdata\\Europe\\Zurich',
   'l:\\python\\tcl\\tcl8.6\\tzdata\\Europe\\Zurich',
   'DATA'),
  ('tcl\\tzdata\\SystemV\\YST9',
   'l:\\python\\tcl\\tcl8.6\\tzdata\\SystemV\\YST9',
   'DATA'),
  ('tcl\\msgs\\de_be.msg', 'l:\\python\\tcl\\tcl8.6\\msgs\\de_be.msg', 'DATA'),
  ('tcl\\msgs\\en_nz.msg', 'l:\\python\\tcl\\tcl8.6\\msgs\\en_nz.msg', 'DATA'),
  ('tcl\\encoding\\euc-kr.enc',
   'l:\\python\\tcl\\tcl8.6\\encoding\\euc-kr.enc',
   'DATA'),
  ('tcl\\encoding\\macRomania.enc',
   'l:\\python\\tcl\\tcl8.6\\encoding\\macRomania.enc',
   'DATA'),
  ('tcl\\tzdata\\Etc\\GMT+1',
   'l:\\python\\tcl\\tcl8.6\\tzdata\\Etc\\GMT+1',
   'DATA'),
  ('tcl\\tzdata\\SystemV\\MST7',
   'l:\\python\\tcl\\tcl8.6\\tzdata\\SystemV\\MST7',
   'DATA'),
  ('tcl\\encoding\\cp1251.enc',
   'l:\\python\\tcl\\tcl8.6\\encoding\\cp1251.enc',
   'DATA'),
  ('tk\\ttk\\utils.tcl', 'l:\\python\\tcl\\tk8.6\\ttk\\utils.tcl', 'DATA'),
  ('tcl\\tzdata\\Australia\\Tasmania',
   'l:\\python\\tcl\\tcl8.6\\tzdata\\Australia\\Tasmania',
   'DATA'),
  ('tcl\\msgs\\es_do.msg', 'l:\\python\\tcl\\tcl8.6\\msgs\\es_do.msg', 'DATA'),
  ('tcl\\msgs\\en_ca.msg', 'l:\\python\\tcl\\tcl8.6\\msgs\\en_ca.msg', 'DATA'),
  ('tcl\\encoding\\iso8859-3.enc',
   'l:\\python\\tcl\\tcl8.6\\encoding\\iso8859-3.enc',
   'DATA'),
  ('tcl\\tzdata\\Pacific\\Pitcairn',
   'l:\\python\\tcl\\tcl8.6\\tzdata\\Pacific\\Pitcairn',
   'DATA'),
  ('tcl\\tzdata\\America\\North_Dakota\\Center',
   'l:\\python\\tcl\\tcl8.6\\tzdata\\America\\North_Dakota\\Center',
   'DATA'),
  ('tcl\\tzdata\\Asia\\Gaza',
   'l:\\python\\tcl\\tcl8.6\\tzdata\\Asia\\Gaza',
   'DATA'),
  ('tcl\\tzdata\\Africa\\Blantyre',
   'l:\\python\\tcl\\tcl8.6\\tzdata\\Africa\\Blantyre',
   'DATA'),
  ('tk\\tkfbox.tcl', 'l:\\python\\tcl\\tk8.6\\tkfbox.tcl', 'DATA'),
  ('tcl\\msgs\\de_at.msg', 'l:\\python\\tcl\\tcl8.6\\msgs\\de_at.msg', 'DATA'),
  ('tcl\\tzdata\\Etc\\GMT-11',
   'l:\\python\\tcl\\tcl8.6\\tzdata\\Etc\\GMT-11',
   'DATA'),
  ('tcl\\tzdata\\America\\Montevideo',
   'l:\\python\\tcl\\tcl8.6\\tzdata\\America\\Montevideo',
   'DATA'),
  ('tcl\\msgs\\fi.msg', 'l:\\python\\tcl\\tcl8.6\\msgs\\fi.msg', 'DATA'),
  ('tcl\\msgs\\fr_ca.msg', 'l:\\python\\tcl\\tcl8.6\\msgs\\fr_ca.msg', 'DATA'),
  ('tcl\\tzdata\\America\\Buenos_Aires',
   'l:\\python\\tcl\\tcl8.6\\tzdata\\America\\Buenos_Aires',
   'DATA'),
  ('tcl\\msgs\\kok_in.msg',
   'l:\\python\\tcl\\tcl8.6\\msgs\\kok_in.msg',
   'DATA'),
  ('tcl\\tzdata\\America\\Thule',
   'l:\\python\\tcl\\tcl8.6\\tzdata\\America\\Thule',
   'DATA'),
  ('tcl\\tzdata\\Africa\\Malabo',
   'l:\\python\\tcl\\tcl8.6\\tzdata\\Africa\\Malabo',
   'DATA'),
  ('tcl\\tzdata\\Singapore',
   'l:\\python\\tcl\\tcl8.6\\tzdata\\Singapore',
   'DATA'),
  ('tcl\\msgs\\ko_kr.msg', 'l:\\python\\tcl\\tcl8.6\\msgs\\ko_kr.msg', 'DATA'),
  ('tcl\\tzdata\\Africa\\Asmera',
   'l:\\python\\tcl\\tcl8.6\\tzdata\\Africa\\Asmera',
   'DATA'),
  ('tcl\\msgs\\fr_ch.msg', 'l:\\python\\tcl\\tcl8.6\\msgs\\fr_ch.msg', 'DATA'),
  ('tcl\\tzdata\\Australia\\Victoria',
   'l:\\python\\tcl\\tcl8.6\\tzdata\\Australia\\Victoria',
   'DATA'),
  ('tcl\\msgs\\bn_in.msg', 'l:\\python\\tcl\\tcl8.6\\msgs\\bn_in.msg', 'DATA'),
  ('tk\\megawidget.tcl', 'l:\\python\\tcl\\tk8.6\\megawidget.tcl', 'DATA'),
  ('tcl\\tzdata\\Pacific\\Wake',
   'l:\\python\\tcl\\tcl8.6\\tzdata\\Pacific\\Wake',
   'DATA'),
  ('tcl\\tzdata\\Africa\\Lusaka',
   'l:\\python\\tcl\\tcl8.6\\tzdata\\Africa\\Lusaka',
   'DATA'),
  ('tcl\\tzdata\\Europe\\Bratislava',
   'l:\\python\\tcl\\tcl8.6\\tzdata\\Europe\\Bratislava',
   'DATA'),
  ('tcl\\tzdata\\Etc\\GMT-13',
   'l:\\python\\tcl\\tcl8.6\\tzdata\\Etc\\GMT-13',
   'DATA'),
  ('tcl\\tzdata\\Africa\\Bangui',
   'l:\\python\\tcl\\tcl8.6\\tzdata\\Africa\\Bangui',
   'DATA'),
  ('tcl\\msgs\\gv_gb.msg', 'l:\\python\\tcl\\tcl8.6\\msgs\\gv_gb.msg', 'DATA'),
  ('tcl\\encoding\\macJapan.enc',
   'l:\\python\\tcl\\tcl8.6\\encoding\\macJapan.enc',
   'DATA'),
  ('tcl\\encoding\\cp949.enc',
   'l:\\python\\tcl\\tcl8.6\\encoding\\cp949.enc',
   'DATA'),
  ('tcl\\tzdata\\SystemV\\CST6CDT',
   'l:\\python\\tcl\\tcl8.6\\tzdata\\SystemV\\CST6CDT',
   'DATA'),
  ('tk\\entry.tcl', 'l:\\python\\tcl\\tk8.6\\entry.tcl', 'DATA'),
  ('tcl\\tzdata\\Australia\\North',
   'l:\\python\\tcl\\tcl8.6\\tzdata\\Australia\\North',
   'DATA'),
  ('tcl\\encoding\\gb1988.enc',
   'l:\\python\\tcl\\tcl8.6\\encoding\\gb1988.enc',
   'DATA'),
  ('tk\\ttk\\xpTheme.tcl', 'l:\\python\\tcl\\tk8.6\\ttk\\xpTheme.tcl', 'DATA'),
  ('tcl\\tzdata\\America\\Noronha',
   'l:\\python\\tcl\\tcl8.6\\tzdata\\America\\Noronha',
   'DATA'),
  ('tcl\\tzdata\\America\\Vancouver',
   'l:\\python\\tcl\\tcl8.6\\tzdata\\America\\Vancouver',
   'DATA'),
  ('tcl\\tzdata\\NZ', 'l:\\python\\tcl\\tcl8.6\\tzdata\\NZ', 'DATA'),
  ('tk\\ttk\\scrollbar.tcl',
   'l:\\python\\tcl\\tk8.6\\ttk\\scrollbar.tcl',
   'DATA'),
  ('tcl\\tzdata\\SystemV\\HST10',
   'l:\\python\\tcl\\tcl8.6\\tzdata\\SystemV\\HST10',
   'DATA'),
  ('tcl\\tzdata\\Pacific\\Rarotonga',
   'l:\\python\\tcl\\tcl8.6\\tzdata\\Pacific\\Rarotonga',
   'DATA'),
  ('tcl\\tzdata\\GMT', 'l:\\python\\tcl\\tcl8.6\\tzdata\\GMT', 'DATA'),
  ('tcl\\tzdata\\Pacific\\Samoa',
   'l:\\python\\tcl\\tcl8.6\\tzdata\\Pacific\\Samoa',
   'DATA'),
  ('tcl\\tzdata\\America\\Campo_Grande',
   'l:\\python\\tcl\\tcl8.6\\tzdata\\America\\Campo_Grande',
   'DATA'),
  ('tcl\\tzdata\\Asia\\Magadan',
   'l:\\python\\tcl\\tcl8.6\\tzdata\\Asia\\Magadan',
   'DATA'),
  ('tcl\\tzdata\\America\\Winnipeg',
   'l:\\python\\tcl\\tcl8.6\\tzdata\\America\\Winnipeg',
   'DATA'),
  ('tcl\\tzdata\\America\\Iqaluit',
   'l:\\python\\tcl\\tcl8.6\\tzdata\\America\\Iqaluit',
   'DATA'),
  ('tcl\\msgs\\es_cl.msg', 'l:\\python\\tcl\\tcl8.6\\msgs\\es_cl.msg', 'DATA'),
  ('tcl\\tzdata\\Africa\\Windhoek',
   'l:\\python\\tcl\\tcl8.6\\tzdata\\Africa\\Windhoek',
   'DATA'),
  ('tcl\\tzdata\\America\\Port-au-Prince',
   'l:\\python\\tcl\\tcl8.6\\tzdata\\America\\Port-au-Prince',
   'DATA'),
  ('tcl\\tzdata\\MET', 'l:\\python\\tcl\\tcl8.6\\tzdata\\MET', 'DATA'),
  ('tcl\\encoding\\cp936.enc',
   'l:\\python\\tcl\\tcl8.6\\encoding\\cp936.enc',
   'DATA'),
  ('tcl\\msgs\\en_bw.msg', 'l:\\python\\tcl\\tcl8.6\\msgs\\en_bw.msg', 'DATA'),
  ('tk\\msgs\\eo.msg', 'l:\\python\\tcl\\tk8.6\\msgs\\eo.msg', 'DATA'),
  ('tcl\\tzdata\\America\\Grenada',
   'l:\\python\\tcl\\tcl8.6\\tzdata\\America\\Grenada',
   'DATA'),
  ('tcl\\http1.0\\http.tcl',
   'l:\\python\\tcl\\tcl8.6\\http1.0\\http.tcl',
   'DATA'),
  ('tcl\\tzdata\\Europe\\Dublin',
   'l:\\python\\tcl\\tcl8.6\\tzdata\\Europe\\Dublin',
   'DATA'),
  ('tcl\\msgs\\es_gt.msg', 'l:\\python\\tcl\\tcl8.6\\msgs\\es_gt.msg', 'DATA'),
  ('tcl\\tzdata\\US\\Mountain',
   'l:\\python\\tcl\\tcl8.6\\tzdata\\US\\Mountain',
   'DATA'),
  ('tcl\\encoding\\iso2022-kr.enc',
   'l:\\python\\tcl\\tcl8.6\\encoding\\iso2022-kr.enc',
   'DATA'),
  ('tcl\\tzdata\\Africa\\Cairo',
   'l:\\python\\tcl\\tcl8.6\\tzdata\\Africa\\Cairo',
   'DATA'),
  ('tcl\\tzdata\\America\\Scoresbysund',
   'l:\\python\\tcl\\tcl8.6\\tzdata\\America\\Scoresbysund',
   'DATA'),
  ('tk\\iconlist.tcl', 'l:\\python\\tcl\\tk8.6\\iconlist.tcl', 'DATA'),
  ('tcl\\msgs\\nn.msg', 'l:\\python\\tcl\\tcl8.6\\msgs\\nn.msg', 'DATA'),
  ('tcl\\tzdata\\Australia\\Adelaide',
   'l:\\python\\tcl\\tcl8.6\\tzdata\\Australia\\Adelaide',
   'DATA'),
  ('tcl\\tzdata\\America\\Caracas',
   'l:\\python\\tcl\\tcl8.6\\tzdata\\America\\Caracas',
   'DATA'),
  ('tcl\\tzdata\\Asia\\Ulan_Bator',
   'l:\\python\\tcl\\tcl8.6\\tzdata\\Asia\\Ulan_Bator',
   'DATA'),
  ('tcl\\tzdata\\Africa\\Mbabane',
   'l:\\python\\tcl\\tcl8.6\\tzdata\\Africa\\Mbabane',
   'DATA'),
  ('tcl\\tzdata\\Iceland', 'l:\\python\\tcl\\tcl8.6\\tzdata\\Iceland', 'DATA'),
  ('tcl\\msgs\\eu.msg', 'l:\\python\\tcl\\tcl8.6\\msgs\\eu.msg', 'DATA'),
  ('tcl\\msgs\\mr_in.msg', 'l:\\python\\tcl\\tcl8.6\\msgs\\mr_in.msg', 'DATA'),
  ('tcl\\msgs\\fa.msg', 'l:\\python\\tcl\\tcl8.6\\msgs\\fa.msg', 'DATA'),
  ('tcl\\tzdata\\Pacific\\Chatham',
   'l:\\python\\tcl\\tcl8.6\\tzdata\\Pacific\\Chatham',
   'DATA'),
  ('tk\\msgs\\it.msg', 'l:\\python\\tcl\\tk8.6\\msgs\\it.msg', 'DATA'),
  ('tcl\\tzdata\\Asia\\Ashkhabad',
   'l:\\python\\tcl\\tcl8.6\\tzdata\\Asia\\Ashkhabad',
   'DATA'),
  ('tcl\\tzdata\\Australia\\Perth',
   'l:\\python\\tcl\\tcl8.6\\tzdata\\Australia\\Perth',
   'DATA'),
  ('tcl\\tzdata\\Africa\\Ndjamena',
   'l:\\python\\tcl\\tcl8.6\\tzdata\\Africa\\Ndjamena',
   'DATA'),
  ('tcl\\msgs\\bg.msg', 'l:\\python\\tcl\\tcl8.6\\msgs\\bg.msg', 'DATA'),
  ('tcl\\tzdata\\Indian\\Maldives',
   'l:\\python\\tcl\\tcl8.6\\tzdata\\Indian\\Maldives',
   'DATA'),
  ('tk\\pkgIndex.tcl', 'l:\\python\\tcl\\tk8.6\\pkgIndex.tcl', 'DATA'),
  ('tcl\\msgs\\en_in.msg', 'l:\\python\\tcl\\tcl8.6\\msgs\\en_in.msg', 'DATA'),
  ('tcl\\tzdata\\Europe\\Busingen',
   'l:\\python\\tcl\\tcl8.6\\tzdata\\Europe\\Busingen',
   'DATA'),
  ('tcl\\tzdata\\Asia\\Tashkent',
   'l:\\python\\tcl\\tcl8.6\\tzdata\\Asia\\Tashkent',
   'DATA'),
  ('tcl\\tzdata\\America\\Nome',
   'l:\\python\\tcl\\tcl8.6\\tzdata\\America\\Nome',
   'DATA'),
  ('tcl\\tzdata\\Asia\\Hebron',
   'l:\\python\\tcl\\tcl8.6\\tzdata\\Asia\\Hebron',
   'DATA'),
  ('tcl\\msgs\\th.msg', 'l:\\python\\tcl\\tcl8.6\\msgs\\th.msg', 'DATA'),
  ('tk\\msgs\\pl.msg', 'l:\\python\\tcl\\tk8.6\\msgs\\pl.msg', 'DATA'),
  ('tcl\\tzdata\\America\\Managua',
   'l:\\python\\tcl\\tcl8.6\\tzdata\\America\\Managua',
   'DATA'),
  ('tcl\\tzdata\\America\\Merida',
   'l:\\python\\tcl\\tcl8.6\\tzdata\\America\\Merida',
   'DATA'),
  ('tcl\\msgs\\gl_es.msg', 'l:\\python\\tcl\\tcl8.6\\msgs\\gl_es.msg', 'DATA'),
  ('tcl\\tzdata\\Africa\\Maputo',
   'l:\\python\\tcl\\tcl8.6\\tzdata\\Africa\\Maputo',
   'DATA'),
  ('tk\\ttk\\defaults.tcl',
   'l:\\python\\tcl\\tk8.6\\ttk\\defaults.tcl',
   'DATA'),
  ('tcl\\tzdata\\Africa\\Abidjan',
   'l:\\python\\tcl\\tcl8.6\\tzdata\\Africa\\Abidjan',
   'DATA'),
  ('tcl\\tzdata\\Libya', 'l:\\python\\tcl\\tcl8.6\\tzdata\\Libya', 'DATA'),
  ('tcl\\tzdata\\Asia\\Novosibirsk',
   'l:\\python\\tcl\\tcl8.6\\tzdata\\Asia\\Novosibirsk',
   'DATA'),
  ('tcl\\tzdata\\Pacific\\Honolulu',
   'l:\\python\\tcl\\tcl8.6\\tzdata\\Pacific\\Honolulu',
   'DATA'),
  ('tcl\\tzdata\\Pacific\\Fakaofo',
   'l:\\python\\tcl\\tcl8.6\\tzdata\\Pacific\\Fakaofo',
   'DATA'),
  ('tcl\\tzdata\\Etc\\GMT+2',
   'l:\\python\\tcl\\tcl8.6\\tzdata\\Etc\\GMT+2',
   'DATA'),
  ('tcl\\encoding\\macCyrillic.enc',
   'l:\\python\\tcl\\tcl8.6\\encoding\\macCyrillic.enc',
   'DATA'),
  ('tcl\\tzdata\\America\\Argentina\\Salta',
   'l:\\python\\tcl\\tcl8.6\\tzdata\\America\\Argentina\\Salta',
   'DATA'),
  ('tcl\\msgs\\ar_in.msg', 'l:\\python\\tcl\\tcl8.6\\msgs\\ar_in.msg', 'DATA'),
  ('tcl\\tzdata\\Asia\\Anadyr',
   'l:\\python\\tcl\\tcl8.6\\tzdata\\Asia\\Anadyr',
   'DATA'),
  ('tcl\\tzdata\\Africa\\Timbuktu',
   'l:\\python\\tcl\\tcl8.6\\tzdata\\Africa\\Timbuktu',
   'DATA'),
  ('tcl\\tzdata\\Pacific\\Port_Moresby',
   'l:\\python\\tcl\\tcl8.6\\tzdata\\Pacific\\Port_Moresby',
   'DATA'),
  ('tk\\msgs\\ru.msg', 'l:\\python\\tcl\\tk8.6\\msgs\\ru.msg', 'DATA'),
  ('tcl\\tzdata\\America\\Guatemala',
   'l:\\python\\tcl\\tcl8.6\\tzdata\\America\\Guatemala',
   'DATA'),
  ('tcl\\tzdata\\Europe\\Stockholm',
   'l:\\python\\tcl\\tcl8.6\\tzdata\\Europe\\Stockholm',
   'DATA'),
  ('tcl\\tzdata\\Canada\\East-Saskatchewan',
   'l:\\python\\tcl\\tcl8.6\\tzdata\\Canada\\East-Saskatchewan',
   'DATA'),
  ('tcl\\tzdata\\Asia\\Irkutsk',
   'l:\\python\\tcl\\tcl8.6\\tzdata\\Asia\\Irkutsk',
   'DATA'),
  ('tcl\\tzdata\\Africa\\El_Aaiun',
   'l:\\python\\tcl\\tcl8.6\\tzdata\\Africa\\El_Aaiun',
   'DATA'),
  ('tk\\comdlg.tcl', 'l:\\python\\tcl\\tk8.6\\comdlg.tcl', 'DATA'),
  ('tcl\\encoding\\big5.enc',
   'l:\\python\\tcl\\tcl8.6\\encoding\\big5.enc',
   'DATA'),
  ('tk\\license.terms', 'l:\\python\\tcl\\tk8.6\\license.terms', 'DATA'),
  ('tcl\\tzdata\\Europe\\Luxembourg',
   'l:\\python\\tcl\\tcl8.6\\tzdata\\Europe\\Luxembourg',
   'DATA'),
  ('tcl\\tzdata\\America\\Belize',
   'l:\\python\\tcl\\tcl8.6\\tzdata\\America\\Belize',
   'DATA'),
  ('tcl\\tzdata\\Africa\\Kinshasa',
   'l:\\python\\tcl\\tcl8.6\\tzdata\\Africa\\Kinshasa',
   'DATA'),
  ('tcl\\tzdata\\Etc\\GMT-1',
   'l:\\python\\tcl\\tcl8.6\\tzdata\\Etc\\GMT-1',
   'DATA'),
  ('tcl\\tzdata\\Asia\\Qatar',
   'l:\\python\\tcl\\tcl8.6\\tzdata\\Asia\\Qatar',
   'DATA'),
  ('tcl\\tzdata\\America\\Yakutat',
   'l:\\python\\tcl\\tcl8.6\\tzdata\\America\\Yakutat',
   'DATA'),
  ('tcl\\tzdata\\America\\Yellowknife',
   'l:\\python\\tcl\\tcl8.6\\tzdata\\America\\Yellowknife',
   'DATA'),
  ('tcl\\tzdata\\America\\Indiana\\Tell_City',
   'l:\\python\\tcl\\tcl8.6\\tzdata\\America\\Indiana\\Tell_City',
   'DATA'),
  ('tcl\\tzdata\\Africa\\Lagos',
   'l:\\python\\tcl\\tcl8.6\\tzdata\\Africa\\Lagos',
   'DATA'),
  ('tcl\\msgs\\it.msg', 'l:\\python\\tcl\\tcl8.6\\msgs\\it.msg', 'DATA'),
  ('tcl\\tzdata\\MST', 'l:\\python\\tcl\\tcl8.6\\tzdata\\MST', 'DATA'),
  ('tcl\\tzdata\\Indian\\Kerguelen',
   'l:\\python\\tcl\\tcl8.6\\tzdata\\Indian\\Kerguelen',
   'DATA'),
  ('tcl\\tzdata\\Africa\\Ceuta',
   'l:\\python\\tcl\\tcl8.6\\tzdata\\Africa\\Ceuta',
   'DATA'),
  ('tcl\\msgs\\es_bo.msg', 'l:\\python\\tcl\\tcl8.6\\msgs\\es_bo.msg', 'DATA'),
  ('tcl\\tzdata\\Etc\\GMT-14',
   'l:\\python\\tcl\\tcl8.6\\tzdata\\Etc\\GMT-14',
   'DATA'),
  ('tcl\\encoding\\cp864.enc',
   'l:\\python\\tcl\\tcl8.6\\encoding\\cp864.enc',
   'DATA'),
  ('tcl\\msgs\\eu_es.msg', 'l:\\python\\tcl\\tcl8.6\\msgs\\eu_es.msg', 'DATA'),
  ('tk\\msgbox.tcl', 'l:\\python\\tcl\\tk8.6\\msgbox.tcl', 'DATA'),
  ('account.exe.manifest',
   'Y:\\tkinter\\account\\build\\account\\account.exe.manifest',
   'BINARY'),
  ('pyi-windows-manifest-filename account.exe.manifest', '', 'OPTION')],
 [],
 False,
 False,
 1613806719,
 [('runw.exe',
   'l:\\python\\lib\\site-packages\\PyInstaller\\bootloader\\Windows-64bit\\runw.exe',
   'EXECUTABLE')])
