('Y:\\tkinter\\account\\build\\account\\PYZ-00.pyz',
 [('os', 'l:\\python\\lib\\os.py', 'PYMODULE'),
  ('subprocess', 'l:\\python\\lib\\subprocess.py', 'PYMODULE'),
  ('selectors', 'l:\\python\\lib\\selectors.py', 'PYMODULE'),
  ('contextlib', 'l:\\python\\lib\\contextlib.py', 'PYMODULE'),
  ('threading', 'l:\\python\\lib\\threading.py', 'PYMODULE'),
  ('_threading_local', 'l:\\python\\lib\\_threading_local.py', 'PYMODULE'),
  ('signal', 'l:\\python\\lib\\signal.py', 'PYMODULE'),
  ('_strptime', 'l:\\python\\lib\\_strptime.py', 'PYMODULE'),
  ('datetime', 'l:\\python\\lib\\datetime.py', 'PYMODULE'),
  ('calendar', 'l:\\python\\lib\\calendar.py', 'PYMODULE'),
  ('argparse', 'l:\\python\\lib\\argparse.py', 'PYMODULE'),
  ('textwrap', 'l:\\python\\lib\\textwrap.py', 'PYMODULE'),
  ('copy', 'l:\\python\\lib\\copy.py', 'PYMODULE'),
  ('gettext', 'l:\\python\\lib\\gettext.py', 'PYMODULE'),
  ('struct', 'l:\\python\\lib\\struct.py', 'PYMODULE'),
  ('shutil', 'l:\\python\\lib\\shutil.py', 'PYMODULE'),
  ('zipfile', 'l:\\python\\lib\\zipfile.py', 'PYMODULE'),
  ('py_compile', 'l:\\python\\lib\\py_compile.py', 'PYMODULE'),
  ('importlib.machinery',
   'l:\\python\\lib\\importlib\\machinery.py',
   'PYMODULE'),
  ('importlib', 'l:\\python\\lib\\importlib\\__init__.py', 'PYMODULE'),
  ('importlib._bootstrap',
   'l:\\python\\lib\\importlib\\_bootstrap.py',
   'PYMODULE'),
  ('importlib._bootstrap_external',
   'l:\\python\\lib\\importlib\\_bootstrap_external.py',
   'PYMODULE'),
  ('importlib.metadata', 'l:\\python\\lib\\importlib\\metadata.py', 'PYMODULE'),
  ('importlib.abc', 'l:\\python\\lib\\importlib\\abc.py', 'PYMODULE'),
  ('configparser', 'l:\\python\\lib\\configparser.py', 'PYMODULE'),
  ('pathlib', 'l:\\python\\lib\\pathlib.py', 'PYMODULE'),
  ('urllib.parse', 'l:\\python\\lib\\urllib\\parse.py', 'PYMODULE'),
  ('urllib', 'l:\\python\\lib\\urllib\\__init__.py', 'PYMODULE'),
  ('email', 'l:\\python\\lib\\email\\__init__.py', 'PYMODULE'),
  ('email.parser', 'l:\\python\\lib\\email\\parser.py', 'PYMODULE'),
  ('email._policybase', 'l:\\python\\lib\\email\\_policybase.py', 'PYMODULE'),
  ('email.utils', 'l:\\python\\lib\\email\\utils.py', 'PYMODULE'),
  ('email._parseaddr', 'l:\\python\\lib\\email\\_parseaddr.py', 'PYMODULE'),
  ('socket', 'l:\\python\\lib\\socket.py', 'PYMODULE'),
  ('random', 'l:\\python\\lib\\random.py', 'PYMODULE'),
  ('hashlib', 'l:\\python\\lib\\hashlib.py', 'PYMODULE'),
  ('logging', 'l:\\python\\lib\\logging\\__init__.py', 'PYMODULE'),
  ('pickle', 'l:\\python\\lib\\pickle.py', 'PYMODULE'),
  ('pprint', 'l:\\python\\lib\\pprint.py', 'PYMODULE'),
  ('doctest', 'l:\\python\\lib\\doctest.py', 'PYMODULE'),
  ('unittest', 'l:\\python\\lib\\unittest\\__init__.py', 'PYMODULE'),
  ('unittest.signals', 'l:\\python\\lib\\unittest\\signals.py', 'PYMODULE'),
  ('unittest.main', 'l:\\python\\lib\\unittest\\main.py', 'PYMODULE'),
  ('unittest.runner', 'l:\\python\\lib\\unittest\\runner.py', 'PYMODULE'),
  ('unittest.loader', 'l:\\python\\lib\\unittest\\loader.py', 'PYMODULE'),
  ('unittest.suite', 'l:\\python\\lib\\unittest\\suite.py', 'PYMODULE'),
  ('unittest.case', 'l:\\python\\lib\\unittest\\case.py', 'PYMODULE'),
  ('unittest.async_case',
   'l:\\python\\lib\\unittest\\async_case.py',
   'PYMODULE'),
  ('asyncio', 'l:\\python\\lib\\asyncio\\__init__.py', 'PYMODULE'),
  ('asyncio.unix_events',
   'l:\\python\\lib\\asyncio\\unix_events.py',
   'PYMODULE'),
  ('asyncio.log', 'l:\\python\\lib\\asyncio\\log.py', 'PYMODULE'),
  ('asyncio.windows_events',
   'l:\\python\\lib\\asyncio\\windows_events.py',
   'PYMODULE'),
  ('asyncio.windows_utils',
   'l:\\python\\lib\\asyncio\\windows_utils.py',
   'PYMODULE'),
  ('tempfile', 'l:\\python\\lib\\tempfile.py', 'PYMODULE'),
  ('asyncio.selector_events',
   'l:\\python\\lib\\asyncio\\selector_events.py',
   'PYMODULE'),
  ('ssl', 'l:\\python\\lib\\ssl.py', 'PYMODULE'),
  ('base64', 'l:\\python\\lib\\base64.py', 'PYMODULE'),
  ('getopt', 'l:\\python\\lib\\getopt.py', 'PYMODULE'),
  ('asyncio.proactor_events',
   'l:\\python\\lib\\asyncio\\proactor_events.py',
   'PYMODULE'),
  ('asyncio.base_subprocess',
   'l:\\python\\lib\\asyncio\\base_subprocess.py',
   'PYMODULE'),
  ('asyncio.subprocess', 'l:\\python\\lib\\asyncio\\subprocess.py', 'PYMODULE'),
  ('asyncio.streams', 'l:\\python\\lib\\asyncio\\streams.py', 'PYMODULE'),
  ('asyncio.queues', 'l:\\python\\lib\\asyncio\\queues.py', 'PYMODULE'),
  ('asyncio.runners', 'l:\\python\\lib\\asyncio\\runners.py', 'PYMODULE'),
  ('asyncio.events', 'l:\\python\\lib\\asyncio\\events.py', 'PYMODULE'),
  ('contextvars', 'l:\\python\\lib\\contextvars.py', 'PYMODULE'),
  ('asyncio.trsock', 'l:\\python\\lib\\asyncio\\trsock.py', 'PYMODULE'),
  ('asyncio.staggered', 'l:\\python\\lib\\asyncio\\staggered.py', 'PYMODULE'),
  ('typing', 'l:\\python\\lib\\typing.py', 'PYMODULE'),
  ('asyncio.tasks', 'l:\\python\\lib\\asyncio\\tasks.py', 'PYMODULE'),
  ('concurrent.futures',
   'l:\\python\\lib\\concurrent\\futures\\__init__.py',
   'PYMODULE'),
  ('concurrent.futures.thread',
   'l:\\python\\lib\\concurrent\\futures\\thread.py',
   'PYMODULE'),
  ('queue', 'l:\\python\\lib\\queue.py', 'PYMODULE'),
  ('concurrent.futures.process',
   'l:\\python\\lib\\concurrent\\futures\\process.py',
   'PYMODULE'),
  ('multiprocessing.queues',
   'l:\\python\\lib\\multiprocessing\\queues.py',
   'PYMODULE'),
  ('multiprocessing.synchronize',
   'l:\\python\\lib\\multiprocessing\\synchronize.py',
   'PYMODULE'),
  ('multiprocessing.heap',
   'l:\\python\\lib\\multiprocessing\\heap.py',
   'PYMODULE'),
  ('multiprocessing.resource_tracker',
   'l:\\python\\lib\\multiprocessing\\resource_tracker.py',
   'PYMODULE'),
  ('multiprocessing.spawn',
   'l:\\python\\lib\\multiprocessing\\spawn.py',
   'PYMODULE'),
  ('runpy', 'l:\\python\\lib\\runpy.py', 'PYMODULE'),
  ('pkgutil', 'l:\\python\\lib\\pkgutil.py', 'PYMODULE'),
  ('zipimport', 'l:\\python\\lib\\zipimport.py', 'PYMODULE'),
  ('multiprocessing.process',
   'l:\\python\\lib\\multiprocessing\\process.py',
   'PYMODULE'),
  ('multiprocessing.util',
   'l:\\python\\lib\\multiprocessing\\util.py',
   'PYMODULE'),
  ('multiprocessing.forkserver',
   'l:\\python\\lib\\multiprocessing\\forkserver.py',
   'PYMODULE'),
  ('multiprocessing.context',
   'l:\\python\\lib\\multiprocessing\\context.py',
   'PYMODULE'),
  ('multiprocessing.popen_spawn_win32',
   'l:\\python\\lib\\multiprocessing\\popen_spawn_win32.py',
   'PYMODULE'),
  ('multiprocessing.popen_forkserver',
   'l:\\python\\lib\\multiprocessing\\popen_forkserver.py',
   'PYMODULE'),
  ('multiprocessing.popen_spawn_posix',
   'l:\\python\\lib\\multiprocessing\\popen_spawn_posix.py',
   'PYMODULE'),
  ('multiprocessing.popen_fork',
   'l:\\python\\lib\\multiprocessing\\popen_fork.py',
   'PYMODULE'),
  ('multiprocessing.sharedctypes',
   'l:\\python\\lib\\multiprocessing\\sharedctypes.py',
   'PYMODULE'),
  ('ctypes', 'l:\\python\\lib\\ctypes\\__init__.py', 'PYMODULE'),
  ('ctypes._endian', 'l:\\python\\lib\\ctypes\\_endian.py', 'PYMODULE'),
  ('multiprocessing.pool',
   'l:\\python\\lib\\multiprocessing\\pool.py',
   'PYMODULE'),
  ('multiprocessing.dummy',
   'l:\\python\\lib\\multiprocessing\\dummy\\__init__.py',
   'PYMODULE'),
  ('multiprocessing.dummy.connection',
   'l:\\python\\lib\\multiprocessing\\dummy\\connection.py',
   'PYMODULE'),
  ('multiprocessing.managers',
   'l:\\python\\lib\\multiprocessing\\managers.py',
   'PYMODULE'),
  ('multiprocessing.shared_memory',
   'l:\\python\\lib\\multiprocessing\\shared_memory.py',
   'PYMODULE'),
  ('secrets', 'l:\\python\\lib\\secrets.py', 'PYMODULE'),
  ('hmac', 'l:\\python\\lib\\hmac.py', 'PYMODULE'),
  ('multiprocessing.reduction',
   'l:\\python\\lib\\multiprocessing\\reduction.py',
   'PYMODULE'),
  ('multiprocessing.resource_sharer',
   'l:\\python\\lib\\multiprocessing\\resource_sharer.py',
   'PYMODULE'),
  ('multiprocessing.connection',
   'l:\\python\\lib\\multiprocessing\\connection.py',
   'PYMODULE'),
  ('xmlrpc.client', 'l:\\python\\lib\\xmlrpc\\client.py', 'PYMODULE'),
  ('xmlrpc', 'l:\\python\\lib\\xmlrpc\\__init__.py', 'PYMODULE'),
  ('gzip', 'l:\\python\\lib\\gzip.py', 'PYMODULE'),
  ('_compression', 'l:\\python\\lib\\_compression.py', 'PYMODULE'),
  ('xml.parsers.expat', 'l:\\python\\lib\\xml\\parsers\\expat.py', 'PYMODULE'),
  ('xml.parsers', 'l:\\python\\lib\\xml\\parsers\\__init__.py', 'PYMODULE'),
  ('xml', 'l:\\python\\lib\\xml\\__init__.py', 'PYMODULE'),
  ('xml.sax.expatreader',
   'l:\\python\\lib\\xml\\sax\\expatreader.py',
   'PYMODULE'),
  ('xml.sax.saxutils', 'l:\\python\\lib\\xml\\sax\\saxutils.py', 'PYMODULE'),
  ('urllib.request', 'l:\\python\\lib\\urllib\\request.py', 'PYMODULE'),
  ('getpass', 'l:\\python\\lib\\getpass.py', 'PYMODULE'),
  ('nturl2path', 'l:\\python\\lib\\nturl2path.py', 'PYMODULE'),
  ('ftplib', 'l:\\python\\lib\\ftplib.py', 'PYMODULE'),
  ('netrc', 'l:\\python\\lib\\netrc.py', 'PYMODULE'),
  ('shlex', 'l:\\python\\lib\\shlex.py', 'PYMODULE'),
  ('mimetypes', 'l:\\python\\lib\\mimetypes.py', 'PYMODULE'),
  ('http.cookiejar', 'l:\\python\\lib\\http\\cookiejar.py', 'PYMODULE'),
  ('http', 'l:\\python\\lib\\http\\__init__.py', 'PYMODULE'),
  ('urllib.response', 'l:\\python\\lib\\urllib\\response.py', 'PYMODULE'),
  ('urllib.error', 'l:\\python\\lib\\urllib\\error.py', 'PYMODULE'),
  ('xml.sax', 'l:\\python\\lib\\xml\\sax\\__init__.py', 'PYMODULE'),
  ('xml.sax.handler', 'l:\\python\\lib\\xml\\sax\\handler.py', 'PYMODULE'),
  ('xml.sax._exceptions',
   'l:\\python\\lib\\xml\\sax\\_exceptions.py',
   'PYMODULE'),
  ('xml.sax.xmlreader', 'l:\\python\\lib\\xml\\sax\\xmlreader.py', 'PYMODULE'),
  ('http.client', 'l:\\python\\lib\\http\\client.py', 'PYMODULE'),
  ('email.message', 'l:\\python\\lib\\email\\message.py', 'PYMODULE'),
  ('email.policy', 'l:\\python\\lib\\email\\policy.py', 'PYMODULE'),
  ('email.contentmanager',
   'l:\\python\\lib\\email\\contentmanager.py',
   'PYMODULE'),
  ('email.quoprimime', 'l:\\python\\lib\\email\\quoprimime.py', 'PYMODULE'),
  ('email.headerregistry',
   'l:\\python\\lib\\email\\headerregistry.py',
   'PYMODULE'),
  ('email.iterators', 'l:\\python\\lib\\email\\iterators.py', 'PYMODULE'),
  ('email.generator', 'l:\\python\\lib\\email\\generator.py', 'PYMODULE'),
  ('email._encoded_words',
   'l:\\python\\lib\\email\\_encoded_words.py',
   'PYMODULE'),
  ('quopri', 'l:\\python\\lib\\quopri.py', 'PYMODULE'),
  ('uu', 'l:\\python\\lib\\uu.py', 'PYMODULE'),
  ('optparse', 'l:\\python\\lib\\optparse.py', 'PYMODULE'),
  ('decimal', 'l:\\python\\lib\\decimal.py', 'PYMODULE'),
  ('_pydecimal', 'l:\\python\\lib\\_pydecimal.py', 'PYMODULE'),
  ('numbers', 'l:\\python\\lib\\numbers.py', 'PYMODULE'),
  ('multiprocessing',
   'l:\\python\\lib\\multiprocessing\\__init__.py',
   'PYMODULE'),
  ('concurrent.futures._base',
   'l:\\python\\lib\\concurrent\\futures\\_base.py',
   'PYMODULE'),
  ('concurrent', 'l:\\python\\lib\\concurrent\\__init__.py', 'PYMODULE'),
  ('asyncio.base_tasks', 'l:\\python\\lib\\asyncio\\base_tasks.py', 'PYMODULE'),
  ('asyncio.locks', 'l:\\python\\lib\\asyncio\\locks.py', 'PYMODULE'),
  ('asyncio.sslproto', 'l:\\python\\lib\\asyncio\\sslproto.py', 'PYMODULE'),
  ('asyncio.transports', 'l:\\python\\lib\\asyncio\\transports.py', 'PYMODULE'),
  ('asyncio.base_events',
   'l:\\python\\lib\\asyncio\\base_events.py',
   'PYMODULE'),
  ('asyncio.protocols', 'l:\\python\\lib\\asyncio\\protocols.py', 'PYMODULE'),
  ('asyncio.futures', 'l:\\python\\lib\\asyncio\\futures.py', 'PYMODULE'),
  ('asyncio.coroutines', 'l:\\python\\lib\\asyncio\\coroutines.py', 'PYMODULE'),
  ('asyncio.base_futures',
   'l:\\python\\lib\\asyncio\\base_futures.py',
   'PYMODULE'),
  ('asyncio.exceptions', 'l:\\python\\lib\\asyncio\\exceptions.py', 'PYMODULE'),
  ('asyncio.format_helpers',
   'l:\\python\\lib\\asyncio\\format_helpers.py',
   'PYMODULE'),
  ('asyncio.constants', 'l:\\python\\lib\\asyncio\\constants.py', 'PYMODULE'),
  ('unittest.result', 'l:\\python\\lib\\unittest\\result.py', 'PYMODULE'),
  ('unittest.util', 'l:\\python\\lib\\unittest\\util.py', 'PYMODULE'),
  ('pdb', 'l:\\python\\lib\\pdb.py', 'PYMODULE'),
  ('pydoc', 'l:\\python\\lib\\pydoc.py', 'PYMODULE'),
  ('webbrowser', 'l:\\python\\lib\\webbrowser.py', 'PYMODULE'),
  ('http.server', 'l:\\python\\lib\\http\\server.py', 'PYMODULE'),
  ('socketserver', 'l:\\python\\lib\\socketserver.py', 'PYMODULE'),
  ('html', 'l:\\python\\lib\\html\\__init__.py', 'PYMODULE'),
  ('html.entities', 'l:\\python\\lib\\html\\entities.py', 'PYMODULE'),
  ('pydoc_data.topics', 'l:\\python\\lib\\pydoc_data\\topics.py', 'PYMODULE'),
  ('pydoc_data', 'l:\\python\\lib\\pydoc_data\\__init__.py', 'PYMODULE'),
  ('tty', 'l:\\python\\lib\\tty.py', 'PYMODULE'),
  ('sysconfig', 'l:\\python\\lib\\sysconfig.py', 'PYMODULE'),
  ('_osx_support', 'l:\\python\\lib\\_osx_support.py', 'PYMODULE'),
  ('distutils.log', 'l:\\python\\lib\\distutils\\log.py', 'PYMODULE'),
  ('distutils', 'l:\\python\\lib\\distutils\\__init__.py', 'PYMODULE'),
  ('distutils.ccompiler',
   'l:\\python\\lib\\distutils\\ccompiler.py',
   'PYMODULE'),
  ('distutils.fancy_getopt',
   'l:\\python\\lib\\distutils\\fancy_getopt.py',
   'PYMODULE'),
  ('distutils.debug', 'l:\\python\\lib\\distutils\\debug.py', 'PYMODULE'),
  ('distutils.util', 'l:\\python\\lib\\distutils\\util.py', 'PYMODULE'),
  ('distutils.filelist', 'l:\\python\\lib\\distutils\\filelist.py', 'PYMODULE'),
  ('distutils.dep_util', 'l:\\python\\lib\\distutils\\dep_util.py', 'PYMODULE'),
  ('distutils.dir_util', 'l:\\python\\lib\\distutils\\dir_util.py', 'PYMODULE'),
  ('distutils.file_util',
   'l:\\python\\lib\\distutils\\file_util.py',
   'PYMODULE'),
  ('distutils.spawn', 'l:\\python\\lib\\distutils\\spawn.py', 'PYMODULE'),
  ('distutils.errors', 'l:\\python\\lib\\distutils\\errors.py', 'PYMODULE'),
  ('distutils.sysconfig',
   'l:\\python\\lib\\distutils\\sysconfig.py',
   'PYMODULE'),
  ('distutils.text_file',
   'l:\\python\\lib\\distutils\\text_file.py',
   'PYMODULE'),
  ('platform', 'l:\\python\\lib\\platform.py', 'PYMODULE'),
  ('plistlib', 'l:\\python\\lib\\plistlib.py', 'PYMODULE'),
  ('glob', 'l:\\python\\lib\\glob.py', 'PYMODULE'),
  ('code', 'l:\\python\\lib\\code.py', 'PYMODULE'),
  ('codeop', 'l:\\python\\lib\\codeop.py', 'PYMODULE'),
  ('dis', 'l:\\python\\lib\\dis.py', 'PYMODULE'),
  ('opcode', 'l:\\python\\lib\\opcode.py', 'PYMODULE'),
  ('bdb', 'l:\\python\\lib\\bdb.py', 'PYMODULE'),
  ('cmd', 'l:\\python\\lib\\cmd.py', 'PYMODULE'),
  ('inspect', 'l:\\python\\lib\\inspect.py', 'PYMODULE'),
  ('ast', 'l:\\python\\lib\\ast.py', 'PYMODULE'),
  ('token', 'l:\\python\\lib\\token.py', 'PYMODULE'),
  ('difflib', 'l:\\python\\lib\\difflib.py', 'PYMODULE'),
  ('__future__', 'l:\\python\\lib\\__future__.py', 'PYMODULE'),
  ('_compat_pickle', 'l:\\python\\lib\\_compat_pickle.py', 'PYMODULE'),
  ('string', 'l:\\python\\lib\\string.py', 'PYMODULE'),
  ('bisect', 'l:\\python\\lib\\bisect.py', 'PYMODULE'),
  ('email.feedparser', 'l:\\python\\lib\\email\\feedparser.py', 'PYMODULE'),
  ('email._header_value_parser',
   'l:\\python\\lib\\email\\_header_value_parser.py',
   'PYMODULE'),
  ('email.header', 'l:\\python\\lib\\email\\header.py', 'PYMODULE'),
  ('email.base64mime', 'l:\\python\\lib\\email\\base64mime.py', 'PYMODULE'),
  ('email.charset', 'l:\\python\\lib\\email\\charset.py', 'PYMODULE'),
  ('email.encoders', 'l:\\python\\lib\\email\\encoders.py', 'PYMODULE'),
  ('email.errors', 'l:\\python\\lib\\email\\errors.py', 'PYMODULE'),
  ('csv', 'l:\\python\\lib\\csv.py', 'PYMODULE'),
  ('tokenize', 'l:\\python\\lib\\tokenize.py', 'PYMODULE'),
  ('importlib.util', 'l:\\python\\lib\\importlib\\util.py', 'PYMODULE'),
  ('tarfile', 'l:\\python\\lib\\tarfile.py', 'PYMODULE'),
  ('lzma', 'l:\\python\\lib\\lzma.py', 'PYMODULE'),
  ('bz2', 'l:\\python\\lib\\bz2.py', 'PYMODULE'),
  ('fnmatch', 'l:\\python\\lib\\fnmatch.py', 'PYMODULE'),
  ('ntpath', 'l:\\python\\lib\\ntpath.py', 'PYMODULE'),
  ('genericpath', 'l:\\python\\lib\\genericpath.py', 'PYMODULE'),
  ('posixpath', 'l:\\python\\lib\\posixpath.py', 'PYMODULE'),
  ('stat', 'l:\\python\\lib\\stat.py', 'PYMODULE'),
  ('tracemalloc', 'l:\\python\\lib\\tracemalloc.py', 'PYMODULE'),
  ('stringprep', 'l:\\python\\lib\\stringprep.py', 'PYMODULE'),
  ('_py_abc', 'l:\\python\\lib\\_py_abc.py', 'PYMODULE'),
  ('tkinter.ttk', 'l:\\python\\lib\\tkinter\\ttk.py', 'PYMODULE'),
  ('tkinter', 'l:\\python\\lib\\tkinter\\__init__.py', 'PYMODULE'),
  ('tkinter.constants', 'l:\\python\\lib\\tkinter\\constants.py', 'PYMODULE'),
  ('sqlite3', 'l:\\python\\lib\\sqlite3\\__init__.py', 'PYMODULE'),
  ('sqlite3.dump', 'l:\\python\\lib\\sqlite3\\dump.py', 'PYMODULE'),
  ('sqlite3.dbapi2', 'l:\\python\\lib\\sqlite3\\dbapi2.py', 'PYMODULE')])
